﻿Armagh,,,,,,,,,,,,
"Location: 287800E 345800N (Irish Grid), Lat 54.352 Lon -6.649, 62 metres amsl",,,,,,,,,,,,
Estimated data is marked with a * after the value.,,,,,,,,,,,,
Missing data (more than 2 days missing in month) is marked by  ---.,,,,,,,,,,,,
"Sunshine data taken from an automatic Kipp & Zonen sensor marked with a #, otherwise sunshine data taken from a Campbell Stokes recorder.",,,,,,,,,,,,
yyyy,,,,,,,,,,,,
,,degC,,degC,,days,,mm,,hours,,
1853,1,---,,---,,---,,57.3,,---,,
1853,2,---,,---,,---,,32.3,,---,,
1853,3,---,,---,,---,,65.5,,---,,
1853,4,---,,---,,---,,46.2,,---,,
1853,5,---,,---,,---,,13.2,,---,,
1853,6,---,,---,,---,,53.3,,---,,
1853,7,---,,---,,---,,78,,---,,
1853,8,---,,---,,---,,56.6,,---,,
1853,9,---,,---,,---,,24.5,,---,,
1853,10,---,,---,,---,,94.8,,---,,
1853,11,---,,---,,---,,75.5,,---,,
1853,12,---,,---,,---,,39.1,,---,,
1854,1,---,,---,,---,,78.9,,---,,
1854,2,---,,---,,---,,38.8,,---,,
1854,3,---,,---,,---,,41.2,,---,,
1854,4,---,,---,,---,,4.5,,---,,
1854,5,---,,---,,---,,73.5,,---,,
1854,6,---,,---,,---,,115.4,,---,,
1854,7,---,,---,,---,,133.1,,---,,
1854,8,---,,---,,---,,65.6,,---,,
1854,9,---,,---,,---,,42.4,,---,,
1854,10,---,,---,,---,,73.6,,---,,
1854,11,---,,---,,---,,63,,---,,
1854,12,---,,---,,---,,107.2,,---,,
1855,1,---,,---,,---,,7.3,,---,,
1855,2,---,,---,,---,,38.7,,---,,
1855,3,---,,---,,---,,54.2,,---,,
1855,4,---,,---,,---,,34.2,,---,,
1855,5,---,,---,,---,,62.2,,---,,
1855,6,---,,---,,---,,60.2,,---,,
1855,7,---,,---,,---,,71.5,,---,,
1855,8,---,,---,,---,,83.3,,---,,
1855,9,---,,---,,---,,37.4,,---,,
1855,10,---,,---,,---,,81.9,,---,,
1855,11,---,,---,,---,,17.4,,---,,
1855,12,---,,---,,---,,54.3,,---,,
1856,1,---,,---,,---,,58.7,,---,,
1856,2,---,,---,,---,,38.8,,---,,
1856,3,---,,---,,---,,21.1,,---,,
1856,4,---,,---,,---,,26.3,,---,,
1856,5,---,,---,,---,,107.4,,---,,
1856,6,---,,---,,---,,58.1,,---,,
1856,7,---,,---,,---,,39.4,,---,,
1856,8,---,,---,,---,,66.9,,---,,
1856,9,---,,---,,---,,80.1,,---,,
1856,10,---,,---,,---,,36.5,,---,,
1856,11,---,,---,,---,,36.1,,---,,
1856,12,---,,---,,---,,90.5,,---,,
1857,1,---,,---,,---,,82.7,,---,,
1857,2,---,,---,,---,,41.6,,---,,
1857,3,---,,---,,---,,99.3,,---,,
1857,4,---,,---,,---,,112.2,,---,,
1857,5,---,,---,,---,,31.6,,---,,
1857,6,---,,---,,---,,47.5,,---,,
1857,7,---,,---,,---,,70.5,,---,,
1857,8,---,,---,,---,,76,,---,,
1857,9,---,,---,,---,,45.7,,---,,
1857,10,---,,---,,---,,40.2,,---,,
1857,11,---,,---,,---,,84.6,,---,,
1857,12,---,,---,,---,,42.7,,---,,
1858,1,---,,---,,---,,37,,---,,
1858,2,---,,---,,---,,32.8,,---,,
1858,3,---,,---,,---,,27.4,,---,,
1858,4,---,,---,,---,,133.8,,---,,
1858,5,---,,---,,---,,83.9,,---,,
1858,6,---,,---,,---,,26.3,,---,,
1858,7,---,,---,,---,,78.5,,---,,
1858,8,---,,---,,---,,84.6,,---,,
1858,9,---,,---,,---,,47.1,,---,,
1858,10,---,,---,,---,,61.8,,---,,
1858,11,---,,---,,---,,30.1,,---,,
1858,12,---,,---,,---,,93.2,,---,,
1859,1,---,,---,,---,,72.1,,---,,
1859,2,---,,---,,---,,36.4,,---,,
1859,3,---,,---,,---,,64.9,,---,,
1859,4,---,,---,,---,,62.1,,---,,
1859,5,---,,---,,---,,10.3,,---,,
1859,6,---,,---,,---,,33.7,,---,,
1859,7,---,,---,,---,,47,,---,,
1859,8,---,,---,,---,,81.8,,---,,
1859,9,---,,---,,---,,102.2,,---,,
1859,10,---,,---,,---,,38.7,,---,,
1859,11,---,,---,,---,,84.9,,---,,
1859,12,---,,---,,---,,63.2,,---,,
1860,1,---,,---,,---,,89.3,,---,,
1860,2,---,,---,,---,,28.4,,---,,
1860,3,---,,---,,---,,52.5,,---,,
1860,4,---,,---,,---,,37.4,,---,,
1860,5,---,,---,,---,,78.3,,---,,
1860,6,---,,---,,---,,94.6,,---,,
1860,7,---,,---,,---,,34.9,,---,,
1860,8,---,,---,,---,,126,,---,,
1860,9,---,,---,,---,,23.1,,---,,
1860,10,---,,---,,---,,56.1,,---,,
1860,11,---,,---,,---,,47.4,,---,,
1860,12,---,,---,,---,,54.2,,---,,
1861,1,---,,---,,---,,86.4,,---,,
1861,2,---,,---,,---,,68,,---,,
1861,3,---,,---,,---,,126.4,,---,,
1861,4,---,,---,,---,,28.7,,---,,
1861,5,---,,---,,---,,23.9,,---,,
1861,6,---,,---,,---,,158.9,,---,,
1861,7,---,,---,,---,,115.8,,---,,
1861,8,---,,---,,---,,138.5,,---,,
1861,9,---,,---,,---,,103.4,,---,,
1861,10,---,,---,,---,,69,,---,,
1861,11,---,,---,,---,,81.8,,---,,
1861,12,---,,---,,---,,54.5,,---,,
1862,1,---,,---,,---,,118.8,,---,,
1862,2,---,,---,,---,,25.1,,---,,
1862,3,---,,---,,---,,77.1,,---,,
1862,4,---,,---,,---,,69.8,,---,,
1862,5,---,,---,,---,,109.3,,---,,
1862,6,---,,---,,---,,87,,---,,
1862,7,---,,---,,---,,103.6,,---,,
1862,8,---,,---,,---,,60.5,,---,,
1862,9,---,,---,,---,,43.9,,---,,
1862,10,---,,---,,---,,121,,---,,
1862,11,---,,---,,---,,46,,---,,
1862,12,---,,---,,---,,84.4,,---,,
1863,1,---,,---,,---,,72.1,,---,,
1863,2,---,,---,,---,,20.5,,---,,
1863,3,---,,---,,---,,42.9,,---,,
1863,4,---,,---,,---,,44.1,,---,,
1863,5,---,,---,,---,,41.9,,---,,
1863,6,---,,---,,---,,106.4,,---,,
1863,7,---,,---,,---,,6.7,,---,,
1863,8,---,,---,,---,,88.9,,---,,
1863,9,---,,---,,---,,99.3,,---,,
1863,10,---,,---,,---,,144.5,,---,,
1863,11,---,,---,,---,,78,,---,,
1863,12,---,,---,,---,,52,,---,,
1864,1,---,,---,,---,,46.3,,---,,
1864,2,---,,---,,---,,35.6,,---,,
1864,3,---,,---,,---,,58.6,,---,,
1864,4,---,,---,,---,,50.2,,---,,
1864,5,---,,---,,---,,47.2,,---,,
1864,6,---,,---,,---,,57.8,,---,,
1864,7,---,,---,,---,,43.5,,---,,
1864,8,---,,---,,---,,56.4,,---,,
1864,9,---,,---,,---,,71.6,,---,,
1864,10,---,,---,,---,,63.2,,---,,
1864,11,---,,---,,---,,144.1,,---,,
1864,12,---,,---,,---,,53.9,,---,,
1865,1,---,,---,,---,,73.9,,---,,
1865,2,---,,---,,---,,114.3,,---,,
1865,3,---,,---,,---,,59,,---,,
1865,4,14.8,,5.5,,0,,25.7,,---,,
1865,5,15.7,,8,,0,,108.9,,---,,
1865,6,21,,11.6,,0,,16,,---,,
1865,7,20.5,,12.5,,0,,51.8,,---,,
1865,8,19,,11.4,,0,,88,,---,,
1865,9,20.4,,11.6,,0,,12.4,,---,,
1865,10,13.7,,6.8,,0,,139.8,,---,,
1865,11,9.6,,3.1,,2,,52.3,,---,,
1865,12,9.7,,4.9,,0,,90.8,,---,,
1866,1,8.2,,2.5,,4,,110.4,,---,,
1866,2,7.7,,0.9,,8,,64,,---,,
1866,3,8.3,,1.7,,12,,66.6,,---,,
1866,4,12.2,,4.6,,1,,52.9,,---,,
1866,5,15,,5.7,,0,,40.2,,---,,
1866,6,18.5,,10.5,,0,,48,,---,,
1866,7,19.9,,12,,0,,62.4,,---,,
1866,8,17.9,,10.6,,0,,92.5,,---,,
1866,9,15.1,,7.6,,0,,99.3,,---,,
1866,10,13.5,,7.2,,0,,56,,---,,
1866,11,10.2,,4.4,,0,,85,,---,,
1866,12,9.5,,3.4,,3,,---,,---,,
1867,1,4.2,,-2.2,,18,,121,,---,,
1867,2,9.8,,4.1,,0,,93.6,,---,,
1867,3,7,,0.5,,13,,56.1,,---,,
1867,4,12.8,,5.9,,0,,134.2,,---,,
1867,5,15.4,,7.5,,0,,107.6,,---,,
1867,6,18.9,,10.8,,0,,23.2,,---,,
1867,7,19.6,,11,,0,,108.4,,---,,
1867,8,19.9,,12.2,,0,,68.1,,---,,
1867,9,17.1,,9.7,,0,,35.4,,---,,
1867,10,12.8,,6.6,,0,,125.2,,---,,
1867,11,9,,3.3,,4,,25,,---,,
1867,12,7.8,,2.4,,9,,55.6,,---,,
1868,1,7.3,,1.9,,7,,138.2,,---,,
1868,2,9.9,,3.5,,3,,96.8,,---,,
1868,3,11.2,,4.1,,1,,128.1,,---,,
1868,4,14.1,,5.6,,0,,76.7,,---,,
1868,5,16.9,,8.1,,0,,47.8,,---,,
1868,6,19.9,,10.7,,0,,28.8,,---,,
1868,7,22.9,,13,,0,,29.3,,---,,
1868,8,19.7,,11.5,,0,,91.1,,---,,
1868,9,17.1,,9.7,,0,,53.8,,---,,
1868,10,12,,4.6,,1,,73.1,,---,,
1868,11,7.9,,2.2,,6,,111.7,,---,,
1868,12,9.5,,3.6,,2,,162.9,,---,,
1869,1,8.5,,4.1,,2,,91.6,,---,,
1869,2,10.4,,4.8,,0,,183.1,,---,,
1869,3,8.1,,1.1,,10,,66,,---,,
1869,4,14.5,,5.6,,0,,86.8,,---,,
1869,5,12.6,,5,,0,,71.3,,---,,
1869,6,17.9,,8.8,,0,,31.4,,---,,
1869,7,22.5,,12.6,,0,,46,,---,,
1869,8,19.7,,11,,0,,43.8,,---,,
1869,9,17,,10,,0,,125.7,,---,,
1869,10,14.2,,7.6,,0,,51,,---,,
1869,11,10.4,,3.1,,9,,123.7,,---,,
1869,12,6.2,,-0.5,,12,,162.8,,---,,
1870,1,6.9,,1,,11,,92.1,,---,,
1870,2,6.7,,0.2,,12,,68.6,,---,,
1870,3,10.2,,2.4,,7,,36.2,,---,,
1870,4,14.5,,5.1,,0,,33.5,,---,,
1870,5,16,,7.4,,0,,60.1,,---,,
1870,6,19.8,,10.5,,0,,23.7,,---,,
1870,7,21.6,,12.7,,0,,41.3,,---,,
1870,8,21.6,,11.1,,0,,51.9,,---,,
1870,9,18.2,,10.3,,0,,75,,---,,
1870,10,13.1,,5.7,,1,,226.4,,---,,
1870,11,8.5,,2.1,,7,,45.3,,---,,
1870,12,4.7,,-1.5,,17,,91.1,,---,,
1871,1,5.1,,-0.1,,14,,104.8,,---,,
1871,2,10.2,,4.8,,0,,88.5,,---,,
1871,3,11.6,,3.2,,4,,52.7,,---,,
1871,4,13.2,,5.3,,1,,86,,---,,
1871,5,17.4,,7.1,,0,,10.1,,---,,
1871,6,18.5,,10,,0,,44.3,,---,,
1871,7,19.8,,11.2,,0,,118.1,,---,,
1871,8,20.8,,12,,0,,65.6,,---,,
1871,9,16,,8.3,,0,,102.1,,---,,
1871,10,13.8,,6.7,,0,,74.4,,---,,
1871,11,8.4,,2.5,,5,,50.3,,---,,
1871,12,7.6,,1.1,,9,,64.7,,---,,
1872,1,7.9,,1.5,,8,,150.4,,---,,
1872,2,9.9,,4.2,,0,,86.5,,---,,
1872,3,10.6,,3.6,,4,,67.5,,---,,
1872,4,13.1,,4.5,,0,,106.7,,---,,
1872,5,14.4,,6.2,,0,,55.5,,---,,
1872,6,18.2,,9.5,,0,,93.8,,---,,
1872,7,21.3,,12.7,,0,,64.2,,---,,
1872,8,19.8,,11.9,,0,,65.1,,---,,
1872,9,16.4,,9.7,,0,,131.9,,---,,
1872,10,11.8,,4.5,,1,,133.5,,---,,
1872,11,9.2,,2.8,,3,,135,,---,,
1872,12,7.4,,2,,11,,158.9,,---,,
1873,1,7.8,,1.9,,6,,152.7,,---,,
1873,2,6.2,,-0.4,,14,,12.5,,---,,
1873,3,9.2,,2.1,,6,,53.8,,---,,
1873,4,13.1,,4.6,,2,,13.7,,---,,
1873,5,15.3,,6.1,,0,,49,,---,,
1873,6,19.8,,10.7,,0,,34.9,,---,,
1873,7,20.5,,12.5,,0,,134.1,,---,,
1873,8,18.6,,11.6,,0,,123.6,,---,,
1873,9,16.2,,7.8,,0,,70.6,,---,,
1873,10,11.9,,4.5,,5,,79.8,,---,,
1873,11,9.3,,2.9,,0,,79.8,,---,,
1873,12,9.9,,4.1,,3,,36.4,,---,,
1874,1,8.9,,2.6,,3,,74.8,,---,,
1874,2,9,,2.4,,3,,55,,---,,
1874,3,11.4,,4.1,,4,,60.7,,---,,
1874,4,14.8,,5.5,,0,,55.3,,---,,
1874,5,15.2,,6.6,,0,,29,,---,,
1874,6,20,,9.5,,0,,28.9,,---,,
1874,7,21.6,,12.4,,0,,76.7,,---,,
1874,8,19.7,,11.1,,0,,105.7,,---,,
1874,9,16.2,,9.5,,0,,79,,---,,
1874,10,12.7,,4.9,,0,,97.2,,---,,
1874,11,10.4,,4.4,,1,,81.7,,---,,
1874,12,4.8,,-1.6,,21,,77.3,,---,,
1875,1,9.7,,3.9,,3,,98.9,,---,,
1875,2,7.3,,1.1,,6,,43.7,,---,,
1875,3,9.5,,2.9,,3,,30.8,,---,,
1875,4,14.7,,4.5,,0,,8.4,,---,,
1875,5,17.7,,8.2,,0,,42.7,,---,,
1875,6,18.6,,9.5,,0,,83.4,,---,,
1875,7,19.5,,10,,0,,96.3,,---,,
1875,8,20.7,,12.8,,0,,95,,---,,
1875,9,18.3,,11.1,,0,,128.1,,---,,
1875,10,12.8,,6.5,,0,,120.9,,---,,
1875,11,8.6,,2.6,,8,,100.8,,---,,
1875,12,7.3,,0.8,,12,,51.6,,---,,
1876,1,8.3,,2.3,,8,,33.4,,---,,
1876,2,8.5,,1,,9,,99.8,,---,,
1876,3,8.3,,0.2,,14,,90.3,,---,,
1876,4,12.5,,3.7,,4,,46.1,,---,,
1876,5,15.7,,6.2,,0,,12,,---,,
1876,6,19.1,,9.3,,0,,38.6,,---,,
1876,7,21.8,,11.5,,0,,52.3,,---,,
1876,8,20.5,,11.1,,0,,66.1,,---,,
1876,9,16.4,,9,,0,,70.6,,---,,
1876,10,14.2,,8.7,,0,,98.6,,---,,
1876,11,9.8,,4.3,,5,,71.5,,---,,
1876,12,9.1,,3.3,,6,,178.3,,---,,
1877,1,8.5,,2,,5,,133.5,,---,,
1877,2,9.4,,2.8,,3,,76.8,,---,,
1877,3,9.8,,1.5,,9,,73.2,,---,,
1877,4,10.7,,3.8,,0,,81.4,,---,,
1877,5,14.3,,5.3,,1,,69.1,,---,,
1877,6,19.7,,10.3,,0,,78,,---,,
1877,7,19,,10.8,,0,,80.7,,---,,
1877,8,18.9,,11,,0,,77.8,,---,,
1877,9,16,,7.6,,0,,47.8,,---,,
1877,10,13.9,,6.7,,0,,87.1,,---,,
1877,11,10,,3.3,,2,,95.9,,---,,
1877,12,8.4,,1.9,,6,,88.6,,---,,
1878,1,8.5,,2.3,,6,,90.6,,---,,
1878,2,9.6,,3.5,,2,,42.8,,---,,
1878,3,10.2,,2.9,,8,,38.3,,---,,
1878,4,13.8,,5.2,,2,,34.3,,---,,
1878,5,16.3,,7.9,,0,,105.8,,---,,
1878,6,19.4,,10.6,,0,,91.4,,---,,
1878,7,21.5,,12.2,,0,,4.3,,---,,
1878,8,20.6,,12.5,,0,,72.5,,---,,
1878,9,17.8,,9.9,,0,,109.5,,---,,
1878,10,13.9,,7.4,,0,,75.5,,---,,
1878,11,6.9,,-0.3,,16,,42.8,,---,,
1878,12,3.3,,-4.2,,27,,47.1,,---,,
1879,1,4.2,,-2,,21,,45,,---,,
1879,2,6.7,,0.7,,9,,43.6,,---,,
1879,3,8.6,,1,,10,,52.2,,---,,
1879,4,10.9,,2.6,,4,,61.4,,---,,
1879,5,14.4,,4.8,,0,,87.6,,---,,
1879,6,17.8,,9.8,,0,,136.2,,---,,
1879,7,17.7,,10.6,,0,,133.2,,---,,
1879,8,18.7,,10.5,,0,,81.1,,---,,
1879,9,15.7,,8.2,,0,,96,,---,,
1879,10,12.4,,5.5,,1,,38.5,,---,,
1879,11,9,,2.9,,5,,35.4,,---,,
1879,12,5.4,,-1.4,,16,,49,,---,,
1880,1,6.8,,1.3,,9,,35,,---,,
1880,2,9.7,,3,,3,,67.2,,---,,
1880,3,11.3,,3.2,,2,,48.9,,---,,
1880,4,12.7,,3.9,,0,,108.6,,---,,
1880,5,16.1,,6.5,,0,,27.2,,---,,
1880,6,17,,9.7,,0,,111.9,,---,,
1880,7,17.1,,10.9,,0,,149.1,,---,,
1880,8,19.6,,13.1,,0,,27.7,,---,,
1880,9,17.1,,10.6,,0,,105.7,,---,,
1880,10,9.4,,3.4,,4,,28.4,,---,,
1880,11,8.1,,2.8,,6,,88.4,,---,,
1880,12,6.9,,2.2,,12,,64.2,,---,,
1881,1,2,,-3.3,,20,,10.3,,---,,
1881,2,6.2,,1.6,,7,,70.5,,---,,
1881,3,8.3,,2.2,,12,,81.6,,---,,
1881,4,10.4,,3.8,,5,,52,,---,,
1881,5,15.6,,7.4,,0,,52.3,,---,,
1881,6,15.9,,9.2,,0,,103.6,,---,,
1881,7,17.9,,11,,0,,64.4,,---,,
1881,8,16,,9.8,,0,,106.8,,---,,
1881,9,14.9,,8.5,,0,,57.1,,---,,
1881,10,10.8,,5.1,,3,,56.7,,---,,
1881,11,11.5,,5.9,,0,,87.8,,---,,
1881,12,6.2,,1.2,,9,,74.6,,---,,
1882,1,8.3,,3.9,,0,,47.6,,---,,
1882,2,9.5,,4.7,,0,,47.4,,---,,
1882,3,10.4,,4.2,,1,,76.2,,---,,
1882,4,11.1,,4,,1,,93.8,,---,,
1882,5,15.3,,6.3,,0,,86.1,,---,,
1882,6,16.2,,8.9,,0,,77.3,,---,,
1882,7,17.4,,11,,0,,124.7,,---,,
1882,8,17.7,,11.2,,0,,78.8,,---,,
1882,9,14,,7.6,,0,,78.3,,---,,
1882,10,12.3,,6.6,,1,,66,,---,,
1882,11,7.9,,1.9,,6,,114,,---,,
1882,12,4.7,,-0.1,,11,,87.2,,---,,
1883,1,7.5,,2.8,,1,,99.5,,---,,
1883,2,7.9,,2.9,,2,,102.2,,---,,
1883,3,6.5,,-0.2,,17,,32.4,,---,,
1883,4,11.9,,3.6,,1,,50.3,,---,,
1883,5,14,,6,,0,,53.2,,---,,
1883,6,16.3,,9,,0,,72.1,,---,,
1883,7,16.6,,9.8,,0,,51.5,,---,,
1883,8,17.5,,11.1,,0,,58.7,,---,,
1883,9,15.2,,9.2,,0,,125,,---,,
1883,10,12.3,,6.2,,0,,78.7,,---,,
1883,11,8.2,,2.7,,3,,107.4,,---,,
1883,12,7.7,,2.6,,4,,54.5,,---,,
1884,1,8.1,,3.7,,3,,113.9,,---,,
1884,2,7.4,,2.4,,2,,88,,---,,
1884,3,9,,3.6,,2,,85.6,,---,,
1884,4,11.2,,3.2,,2,,42.6,,---,,
1884,5,14.6,,5.9,,0,,75.8,,---,,
1884,6,17.4,,8.9,,0,,21.3,,---,,
1884,7,18.4,,11.5,,0,,95.2,,---,,
1884,8,18.8,,11.8,,0,,62.5,,---,,
1884,9,16.8,,9.5,,0,,71.5,,---,,
1884,10,12.2,,5.9,,0,,93.6,,---,,
1884,11,8.2,,4.6,,0,,51.1,,---,,
1884,12,6.2,,1.6,,6,,86.1,,---,,
1885,1,6.5,,1.5,,6,,54.9,,---,,
1885,2,8.9,,1.7,,7,,77.3,,---,,
1885,3,8.5,,0.2,,16,,43.5,,---,,
1885,4,11.1,,3.4,,2,,62.1,,---,,
1885,5,12.6,,3.9,,1,,38,,---,,
1885,6,17,,7.2,,0,,14.1,,---,,
1885,7,19.8,,10.2,,0,,48.5,,---,,
1885,8,18.5,,9,,0,,49.5,,---,,
1885,9,15.3,,7.2,,0,,110.6,,---,,
1885,10,10.1,,3.5,,3,,74.2,,---,,
1885,11,8.8,,3.2,,5,,46.2,,---,,
1885,12,6.9,,1.8,,11,,36,,---,,
1886,1,4.7,,-0.8,,18,,107.9,,---,,
1886,2,5.9,,0.7,,11,,50.4,,---,,
1886,3,7.5,,1.3,,16,,61.6,,---,,
1886,4,11.4,,2.5,,6,,33.1,,---,,
1886,5,13.6,,5.1,,0,,90,,---,,
1886,6,17,,8.6,,0,,41.8,,---,,
1886,7,18.4,,10.3,,0,,76.3,,---,,
1886,8,18.5,,10.4,,0,,63,,---,,
1886,9,15.8,,7.7,,0,,83.6,,---,,
1886,10,13.1,,7,,0,,120.5,,---,,
1886,11,9.7,,3.7,,0,,75,,---,,
1886,12,4.6,,1.1,,10,,106.1,,---,,
1887,1,6.6,,1.2,,12,,54.4,,---,,
1887,2,8.5,,1.6,,8,,34.1,,---,,
1887,3,8.1,,0.7,,12,,25.6,,---,,
1887,4,10.8,,1.1,,12,,37.1,,---,,
1887,5,14.5,,5.7,,1,,34,,---,,
1887,6,21.5,,10.3,,0,,16.9,,---,,
1887,7,20.2,,11.7,,0,,81.9,,---,,
1887,8,18.7,,9.9,,0,,111,,---,,
1887,9,15.2,,6.8,,0,,43.8,,---,,
1887,10,10.6,,4.4,,2,,45.6,,---,,
1887,11,7.4,,1.5,,7,,57.3,,---,,
1887,12,6.2,,0.6,,11,,64.8,,---,,
1888,1,8,,2.2,,8,,38.2,,---,,
1888,2,5.9,,-0.1,,17,,7.4,,---,,
1888,3,6.4,,-0.5,,18,,77,,---,,
1888,4,10.8,,2.7,,5,,42.1,,---,,
1888,5,15.1,,5.2,,0,,55.3,,---,,
1888,6,16.8,,8.2,,0,,123.6,,---,,
1888,7,16.8,,9.4,,0,,110.7,,---,,
1888,8,17.5,,9.1,,0,,64.8,,---,,
1888,9,15.1,,6.8,,0,,23.9,,---,,
1888,10,12.4,,5,,2,,30.5,,---,,
1888,11,10,,4.9,,1,,112.8,,---,,
1888,12,8.3,,2.6,,7,,59.6,,---,,
1889,1,7.5,,2,,6,,56.5,,---,,
1889,2,7,,0.4,,11,,37.5,,---,,
1889,3,9.3,,2.2,,11,,43.5,,---,,
1889,4,10,,3.6,,0,,80.9,,---,,
1889,5,15.7,,7.8,,0,,80.1,,---,,
1889,6,19.1,,8.7,,0,,6.2,,---,,
1889,7,18.6,,9.1,,0,,73.9,,---,,
1889,8,17,,10.2,,0,,169,,---,,
1889,9,16,,9,,0,,53.6,,---,,
1889,10,11.6,,4.5,,1,,84,,---,,
1889,11,9.9,,4.5,,5,,35.1,,---,,
1889,12,8.3,,2.7,,4,,57.6,,---,,
1890,1,8.8,,2.6,,5,,77.4,,---,,
1890,2,6.9,,1.5,,6,,21,,---,,
1890,3,9.9,,2.7,,8,,65.8,,---,,
1890,4,12,,2.6,,4,,33.3,,---,,
1890,5,15.2,,6.9,,0,,35.1,,---,,
1890,6,17.1,,9.2,,0,,64.3,,---,,
1890,7,17.6,,9.3,,0,,58.2,,---,,
1890,8,17.1,,8.4,,0,,86.9,,---,,
1890,9,17.8,,10.3,,0,,72.5,,---,,
1890,10,13.5,,6.6,,0,,60.7,,---,,
1890,11,9.7,,2.8,,6,,154.4,,---,,
1890,12,5.1,,0.2,,13,,39.8,,---,,
1891,1,5.9,,0.1,,10,,31.8,,---,,
1891,2,10.1,,2.2,,6,,5.5,,---,,
1891,3,8.4,,0.2,,14,,44.1,,---,,
1891,4,9.8,,1.7,,6,,55.3,,---,,
1891,5,13.5,,4.3,,1,,53,,---,,
1891,6,18.9,,9.7,,0,,67.8,,---,,
1891,7,18.4,,10.5,,0,,39.4,,---,,
1891,8,17.2,,10.4,,0,,122.6,,---,,
1891,9,17.2,,9.4,,0,,41.5,,---,,
1891,10,12.7,,4.4,,4,,86.5,,---,,
1891,11,8.2,,2.3,,4,,67,,---,,
1891,12,7.8,,2,,6,,109.1,,---,,
1892,1,5.4,,-0.5,,14,,52.6,,---,,
1892,2,6.7,,1.4,,10,,27.5,,---,,
1892,3,7.4,,-1,,21,,18.4,,---,,
1892,4,13.1,,1.4,,9,,17.9,,---,,
1892,5,15.3,,6.4,,1,,129.7,,---,,
1892,6,17.2,,7.5,,0,,65.6,,---,,
1892,7,17.3,,9.3,,0,,67.9,,---,,
1892,8,17.7,,10.2,,0,,196.1,,---,,
1892,9,14.9,,7.3,,0,,57.5,,---,,
1892,10,10.3,,2.4,,6,,59.3,,---,,
1892,11,9.8,,3.8,,3,,94.5,,---,,
1892,12,5.6,,0.4,,15,,38.7,,---,,
1893,1,5.9,,1.4,,9,,52.3,,---,,
1893,2,7.6,,1.8,,7,,59.9,,---,,
1893,3,11.6,,3.1,,1,,25.4,,---,,
1893,4,14.8,,4.4,,2,,26,,---,,
1893,5,16.1,,8.3,,0,,25.7,,---,,
1893,6,19.6,,9.8,,0,,40.6,,---,,
1893,7,19.4,,10.8,,0,,59.6,,---,,
1893,8,19.8,,11.6,,0,,111.5,,---,,
1893,9,16.1,,7.8,,0,,36,,---,,
1893,10,12.7,,5.1,,2,,72.4,,---,,
1893,11,8.2,,1.8,,10,,36.8,,---,,
1893,12,7.7,,2.5,,5,,71,,---,,
1894,1,6.2,,0.7,,11,,119.3,,---,,
1894,2,9,,2.5,,3,,89.9,,---,,
1894,3,11.1,,1.9,,5,,44.8,,---,,
1894,4,12.7,,5.7,,0,,65.6,,---,,
1894,5,12.6,,3.8,,4,,65.8,,---,,
1894,6,16.7,,7.9,,0,,77.3,,---,,
1894,7,18.7,,10.5,,0,,86.5,,---,,
1894,8,16.7,,10,,0,,59.2,,---,,
1894,9,15.4,,5.6,,0,,2,,---,,
1894,10,12.4,,5,,5,,112.3,,---,,
1894,11,10.2,,4,,3,,51.2,,---,,
1894,12,8.1,,2.6,,6,,69,,---,,
1895,1,2.9,,-2.5,,21,,53.2,,---,,
1895,2,3.1,,-4.2,,22,,9.7,,---,,
1895,3,8.9,,2.8,,6,,85.5,,---,,
1895,4,11.8,,3.6,,4,,29.1,,---,,
1895,5,16.9,,6.1,,0,,6.7,,---,,
1895,6,20,,8,,0,,56.9,,---,,
1895,7,17.8,,9.6,,0,,134,,---,,
1895,8,18.1,,10.3,,0,,115.3,,---,,
1895,9,19,,9.8,,0,,30.6,,---,,
1895,10,10.7,,2.7,,9,,81,,---,,
1895,11,9.5,,3.4,,5,,76.6,,---,,
1895,12,5.9,,1.3,,7,,93.8,,---,,
1896,1,8,,3.1,,5,,41.6,,---,,
1896,2,9.2,,4,,0,,32.2,,---,,
1896,3,9.8,,2.6,,1,,73.2,,---,,
1896,4,13.4,,5.2,,0,,32.3,,---,,
1896,5,17.6,,6.7,,1,,15.8,,---,,
1896,6,19.4,,10.1,,0,,84.2,,---,,
1896,7,18.3,,10,,0,,172.7,,---,,
1896,8,17.4,,8.6,,0,,41.4,,---,,
1896,9,15.3,,8.2,,0,,124.4,,---,,
1896,10,9.8,,2.3,,7,,55.9,,---,,
1896,11,8.3,,2.1,,7,,22.4,,---,,
1896,12,6.6,,0.7,,8,,86.8,,---,,
1897,1,5.4,,-1.3,,18,,38,,---,,
1897,2,8.9,,3.5,,2,,46.9,,---,,
1897,3,9.3,,2.6,,6,,103.3,,---,,
1897,4,10.2,,1.9,,5,,77.3,,---,,
1897,5,14.2,,4.4,,0,,50.6,,---,,
1897,6,17.4,,9.6,,0,,127.1,,---,,
1897,7,20,,10.5,,0,,48.8,,---,,
1897,8,18.5,,10.4,,0,,144.7,,---,,
1897,9,15.7,,6.7,,0,,31.2,,---,,
1897,10,13.5,,6.5,,0,,57.6,,---,,
1897,11,10.7,,4.6,,2,,64.3,,---,,
1897,12,8.4,,2.2,,7,,108.7,,---,,
1898,1,9.5,,4.9,,1,,41.5,,---,,
1898,2,7.7,,1.2,,8,,81.2,,---,,
1898,3,8.8,,0.8,,13,,21.5,,---,,
1898,4,12.9,,4.3,,1,,74.6,,---,,
1898,5,13.9,,4.8,,0,,91.9,,---,,
1898,6,17.3,,8.3,,0,,67.7,,---,,
1898,7,19,,8.8,,0,,14.3,,---,,
1898,8,19.1,,10.5,,1,,88.7,,---,,
1898,9,18.2,,10.5,,0,,111.6,,---,,
1898,10,13.4,,7.4,,0,,81.3,,---,,
1898,11,9.5,,3.8,,4,,64.6,,---,,
1898,12,9.8,,4.6,,2,,64.6,,---,,
1899,1,6.9,,0.8,,11,,67.1,,---,,
1899,2,8.3,,1.9,,6,,68,,---,,
1899,3,10.3,,1.8,,11,,44.5,,---,,
1899,4,11.4,,3.7,,3,,90.5,,---,,
1899,5,14.1,,5,,0,,96.1,,---,,
1899,6,20.1,,9.6,,0,,71.2,,---,,
1899,7,19.1,,11.9,,0,,40.3,,---,,
1899,8,21.5,,11.7,,0,,54.3,,---,,
1899,9,16.1,,8.3,,0,,92.6,,---,,
1899,10,13.9,,5,,1,,43,,---,,
1899,11,11.4,,6.6,,0,,70.3,,---,,
1899,12,6.4,,1.5,,8,,92.6,,---,,
1900,1,7.4,,2.1,,3,,68.3,,---,,
1900,2,5.4,,-1.2,,16,,61.8,,---,,
1900,3,7.2,,0.8,,11,,17.6,,---,,
1900,4,13,,4.3,,1,,51.1,,---,,
1900,5,14.4,,5.9,,0,,67.6,,---,,
1900,6,18.4,,9.7,,0,,75,,---,,
1900,7,19.9,,11.9,,0,,81,,---,,
1900,8,18,,10,,0,,115.6,,---,,
1900,9,17.4,,8.4,,0,,53.3,,---,,
1900,10,12.5,,5,,0,,93,,---,,
1900,11,9.1,,3.1,,5,,143.6,,---,,
1900,12,9.4,,4.4,,0,,94.9,,---,,
1901,1,6.8,,2.3,,4,,85.4,,---,,
1901,2,6.3,,0.1,,11,,32.2,,---,,
1901,3,7.7,,1,,8,,55.4,,---,,
1901,4,12.8,,3.5,,0,,72.8,,---,,
1901,5,16.9,,5.4,,0,,56.2,,---,,
1901,6,17,,8.6,,0,,48.2,,---,,
1901,7,20.8,,12.2,,0,,22.1,,---,,
1901,8,18.7,,10.4,,0,,107.4,,---,,
1901,9,16.3,,9.6,,0,,83,,---,,
1901,10,12.5,,5.4,,1,,80.2,,---,,
1901,11,9.2,,3.7,,5,,98.6,,---,,
1901,12,6,,0.7,,13,,83.1,,---,,
1902,1,6.9,,2.1,,11,,49.9,,---,,
1902,2,5,,-0.5,,11,,67.9,,---,,
1902,3,10.2,,4,,3,,42.7,,---,,
1902,4,11.9,,3.1,,5,,59.5,,---,,
1902,5,12.9,,4.5,,0,,119.5,,---,,
1902,6,16.1,,8.9,,0,,41.6,,---,,
1902,7,17.5,,10,,0,,116.2,,---,,
1902,8,17.7,,9.5,,0,,50.9,,---,,
1902,9,16.8,,9,,0,,75.9,,---,,
1902,10,12.6,,6,,0,,40.1,,---,,
1902,11,10,,4.5,,1,,72.4,,---,,
1902,12,7.4,,2.9,,6,,72.3,,---,,
1903,1,6.5,,1.2,,8,,119.2,,---,,
1903,2,10.2,,4.2,,2,,75,,---,,
1903,3,9.6,,2.4,,1,,104.7,,---,,
1903,4,10.5,,2.9,,7,,40.5,,---,,
1903,5,14.6,,6.3,,0,,67.7,,---,,
1903,6,16.8,,8.1,,0,,27.6,,---,,
1903,7,18.3,,10.4,,0,,84.3,,---,,
1903,8,17.3,,9.4,,0,,104.8,,---,,
1903,9,16.1,,8.8,,0,,84.8,,---,,
1903,10,12.4,,6.7,,0,,95.7,,---,,
1903,11,9.3,,3.2,,5,,46.3,,---,,
1903,12,6,,1.5,,6,,60,,---,,
1904,1,6.9,,2.1,,3,,76.2,,---,,
1904,2,6,,0.9,,9,,78.6,,---,,
1904,3,8.3,,1.6,,8,,59.2,,---,,
1904,4,12.3,,4.3,,0,,54.5,,---,,
1904,5,14.3,,6,,0,,59.3,,---,,
1904,6,17.6,,8.9,,0,,36.9,,---,,
1904,7,19.2,,11.2,,0,,95.8,,---,,
1904,8,17.9,,9.9,,0,,120.3,,---,,
1904,9,16,,8.1,,0,,72.2,,---,,
1904,10,13.3,,5.9,,0,,24.8,,---,,
1904,11,9.1,,3.6,,7,,58.1,,---,,
1904,12,7.3,,2,,6,,48.9,,---,,
1905,1,7.6,,3.2,,1,,59.8,,---,,
1905,2,8,,2.1,,6,,44,,---,,
1905,3,10.1,,2.3,,2,,90.6,,---,,
1905,4,10.8,,3.1,,3,,54.7,,---,,
1905,5,16,,6,,0,,41.7,,---,,
1905,6,19.1,,9.8,,0,,72.2,,---,,
1905,7,20.2,,11.6,,0,,44.3,,---,,
1905,8,17.5,,9.9,,0,,167.5,,---,,
1905,9,15.4,,7.8,,0,,41.2,,---,,
1905,10,11.3,,3.8,,6,,40.3,,---,,
1905,11,8,,1.4,,8,,59.5,,---,,
1905,12,8.9,,4.8,,1,,48.4,,---,,
1906,1,7.6,,2.7,,4,,84.4,,---,,
1906,2,6.6,,-0.2,,17,,62.7,,---,,
1906,3,9.1,,1.7,,8,,42.5,,---,,
1906,4,12,,1.9,,5,,51.5,,---,,
1906,5,13.3,,5.8,,0,,95.5,,---,,
1906,6,18.5,,9.3,,0,,26.1,,---,,
1906,7,19,,9.9,,0,,50.1,,---,,
1906,8,19.8,,12,,0,,89.7,,---,,
1906,9,18,,8.1,,0,,33.1,,---,,
1906,10,13,,5.6,,2,,108.8,,---,,
1906,11,9.9,,4.5,,1,,50,,---,,
1906,12,6.4,,1.8,,7,,71.8,,---,,
1907,1,7.1,,2.4,,8,,19.1,,---,,
1907,2,6.6,,0.5,,14,,49.3,,---,,
1907,3,11,,3.4,,1,,70,,---,,
1907,4,11.2,,3.2,,3,,64.1,,---,,
1907,5,13.7,,5.6,,1,,95.1,,---,,
1907,6,15.2,,7.8,,0,,111.4,,---,,
1907,7,19.2,,10.3,,0,,55.8,,---,,
1907,8,17.3,,9.2,,0,,75.8,,---,,
1907,9,17.6,,9.3,,0,,20.7,,---,,
1907,10,12,,6,,1,,104.1,,---,,
1907,11,8.9,,2.7,,5,,63.1,,---,,
1907,12,7.2,,2.1,,8,,61.4,,---,,
1908,1,6.9,,1.3,,9,,61.6,,---,,
1908,2,8.7,,3.3,,2,,52,,---,,
1908,3,8.5,,1.3,,8,,102.2,,---,,
1908,4,10.5,,1.7,,7,,62.4,,---,,
1908,5,16.2,,7.6,,0,,59.7,,---,,
1908,6,18.1,,8.8,,0,,45.2,,---,,
1908,7,19.2,,11.1,,0,,96.1,,---,,
1908,8,18.1,,9.8,,0,,60.4,,---,,
1908,9,16.1,,8.9,,0,,107.3,,---,,
1908,10,15.3,,8.5,,1,,46.2,,---,,
1908,11,11.1,,4.4,,2,,76.4,,---,,
1908,12,8.2,,2.7,,5,,69.9,,---,,
1909,1,7.3,,2.7,,3,,61.6,,---,,
1909,2,7.7,,2.3,,5,,35.5,,---,,
1909,3,7.2,,0.5,,14,,64.8,,---,,
1909,4,12.6,,4,,0,,78.1,,---,,
1909,5,15.5,,5.7,,2,,45.1,,---,,
1909,6,16.4,,7.5,,0,,53.9,,---,,
1909,7,17.6,,10,,0,,71,,---,,
1909,8,19.3,,10.4,,0,,51.6,,---,,
1909,9,15.7,,7.2,,0,,47,,---,,
1909,10,12.6,,5.6,,4,,125.8,,---,,
1909,11,8.4,,0.4,,13,,23.3,,---,,
1909,12,5.9,,0.8,,11,,76.3,,---,,
1910,1,6.4,,1.1,,11,,65.1,,---,,
1910,2,8,,1.4,,8,,126.5,,---,,
1910,3,9.9,,2.8,,2,,28.6,,---,,
1910,4,10.9,,2.8,,1,,61.1,,---,,
1910,5,15.1,,6.1,,0,,51.8,,---,,
1910,6,18,,9.7,,0,,112.2,,---,,
1910,7,18.7,,9.8,,0,,79.8,,---,,
1910,8,18.3,,10.9,,0,,106.1,,---,,
1910,9,16.5,,8.2,,0,,27.8,,---,,
1910,10,13.4,,6.9,,0,,34.1,,---,,
1910,11,7.5,,0.6,,13,,42.8,,---,,
1910,12,8.2,,3.5,,3,,92,,---,,
1911,1,7.3,,2.1,,6,,27.3,,---,,
1911,2,8.1,,1.4,,5,,75.8,,---,,
1911,3,8.9,,1.5,,7,,24.8,,---,,
1911,4,11.6,,3.4,,3,,62.3,,---,,
1911,5,16.8,,7,,0,,44.2,,---,,
1911,6,18,,8.1,,0,,39.2,,---,,
1911,7,20.9,,11.4,,0,,75,,---,,
1911,8,20.9,,11.3,,0,,36.5,,---,,
1911,9,17.1,,8.1,,0,,38.7,,---,,
1911,10,12.6,,5.2,,2,,73.6,,---,,
1911,11,8.3,,2.4,,4,,72.9,,---,,
1911,12,7.8,,2.9,,2,,132,,---,,
1912,1,6.6,,1.5,,11,,93.4,,---,,
1912,2,8,,1.9,,7,,74.2,,---,,
1912,3,10.4,,3.6,,0,,84.8,,---,,
1912,4,13.4,,4.6,,1,,49.5,,---,,
1912,5,15.5,,6.4,,0,,35.5,,---,,
1912,6,16.8,,9.2,,0,,121.6,,---,,
1912,7,18,,9.3,,0,,70.5,,---,,
1912,8,15.5,,7.6,,0,,152.9,,---,,
1912,9,14.8,,7.1,,0,,22.9,,---,,
1912,10,12.1,,4.3,,5,,28.8,,---,,
1912,11,9.2,,3.8,,6,,64.7,,---,,
1912,12,9.1,,3,,3,,111.7,,---,,
1913,1,7.2,,2.1,,6,,94,,---,,
1913,2,8.2,,2.5,,1,,25.8,,---,,
1913,3,8.9,,1.9,,6,,77.6,,---,,
1913,4,11.7,,3.6,,0,,84.9,,---,,
1913,5,14.2,,6.3,,0,,96.4,,---,,
1913,6,16.8,,8.5,,0,,101.4,,---,,
1913,7,18.1,,9.6,,0,,39.7,,---,,
1913,8,19.4,,9.6,,0,,24.5,,---,,
1913,9,16.9,,9.1,,0,,105.4,,---,,
1913,10,13.8,,7.3,,2,,94.8,,---,,
1913,11,10.9,,4.7,,0,,74.9,,---,,
1913,12,7.3,,2.4,,4,,73.3,,---,,
1914,1,6.9,,2.2,,6,,35,,---,,
1914,2,9.9,,3.3,,1,,74.4,,---,,
1914,3,9.4,,1.8,,9,,102.7,,---,,
1914,4,14,,4.6,,0,,33.1,,---,,
1914,5,14.8,,6,,1,,33.9,,---,,
1914,6,18.6,,8.8,,0,,54.4,,---,,
1914,7,19.1,,11.1,,0,,54.3,,---,,
1914,8,19.9,,10.8,,0,,77.5,,---,,
1914,9,16.7,,8.7,,0,,33.9,,---,,
1914,10,13.7,,6.8,,1,,39,,---,,
1914,11,9.6,,2.7,,6,,95.8,,---,,
1914,12,5.3,,0.2,,12,,181.5,,---,,
1915,1,6,,1.2,,7,,72.7,,---,,
1915,2,7,,0.1,,11,,90.3,,---,,
1915,3,9.7,,1.6,,10,,22,,---,,
1915,4,12.5,,4.4,,0,,54.2,,---,,
1915,5,14.4,,5.2,,3,,22.1,,---,,
1915,6,18.4,,8.5,,0,,43.9,,---,,
1915,7,17.9,,9.8,,0,,95,,---,,
1915,8,18.3,,10.2,,0,,71.9,,---,,
1915,9,17.1,,8.9,,0,,37.4,,---,,
1915,10,12.5,,5.1,,2,,57.3,,---,,
1915,11,6.7,,0.3,,11,,43.7,,---,,
1915,12,6.6,,1.7,,9,,131.4,,---,,
1916,1,10.1,,4.7,,0,,75.5,,---,,
1916,2,7,,0.2,,11,,86.4,,---,,
1916,3,6.6,,0.5,,16,,34.2,,---,,
1916,4,12.4,,3.6,,1,,92,,---,,
1916,5,14.3,,6,,0,,147.9,,---,,
1916,6,16.2,,6.9,,0,,56,,---,,
1916,7,19,,10.8,,0,,41.6,,---,,
1916,8,20.4,,11.6,,0,,84.5,,---,,
1916,9,16.7,,9.8,,0,,22.2,,---,,
1916,10,13,,7.2,,0,,138.3,,---,,
1916,11,9.3,,4.4,,1,,89.6,,---,,
1916,12,5.4,,0.4,,15,,61.1,,---,,
1917,1,4.4,,0.6,,10,,42,,---,,
1917,2,6.5,,-0.1,,16,,65.1,,---,,
1917,3,8,,1.4,,9,,69.1,,---,,
1917,4,9.8,,1,,13,,67.1,,---,,
1917,5,15.7,,7,,0,,76.1,,---,,
1917,6,17.5,,8.5,,0,,77.9,,---,,
1917,7,20.1,,10.7,,0,,63.4,,---,,
1917,8,19,,11.1,,0,,116.3,,---,,
1917,9,17.1,,9.6,,0,,48.3,,---,,
1917,10,10.6,,3.7,,3,,107,,---,,
1917,11,10.9,,5.6,,2,,97.8,,---,,
1917,12,6.4,,0.8,,12,,49.3,,---,,
1918,1,6.6,,1.4,,14,,72.1,,---,,
1918,2,9.3,,4.8,,2,,95.5,,---,,
1918,3,10.2,,2.4,,6,,33.1,,---,,
1918,4,11.6,,2.6,,4,,28.2,,---,,
1918,5,16.4,,7.2,,0,,58.7,,---,,
1918,6,18,,8.6,,0,,25.7,,---,,
1918,7,19,,9.9,,0,,82.8,,---,,
1918,8,19.2,,11.6,,0,,64.7,,---,,
1918,9,13.8,,6.6,,0,,138.4,,---,,
1918,10,11.9,,5.2,,1,,98.5,,---,,
1918,11,9.4,,2.6,,5,,105.5,,---,,
1918,12,9.3,,4.1,,4,,90.2,,---,,
1919,1,5.9,,1.4,,7,,104.6,,---,,
1919,2,5.9,,0.5,,10,,23.7,,---,,
1919,3,7.5,,-0.9,,19,,61.8,,---,,
1919,4,12.3,,3.5,,5,,30.9,,---,,
1919,5,17.1,,7.9,,0,,45.6,,---,,
1919,6,17.2,,8.4,,0,,52,,---,,
1919,7,18.8,,9.1,,0,,16,,---,,
1919,8,19.7,,10.4,,0,,82.3,,---,,
1919,9,16.3,,7.6,,0,,80.4,,---,,
1919,10,12.5,,5.1,,1,,37.9,,---,,
1919,11,6.4,,-0.4,,15,,48.9,,---,,
1919,12,8,,2.3,,3,,155.8,,---,,
1920,1,7.9,,1.9,,7,,104.5,,---,,
1920,2,9.5,,3.5,,3,,64.1,,---,,
1920,3,10.1,,2.8,,3,,82.9,,---,,
1920,4,10.9,,3.6,,3,,76.6,,---,,
1920,5,14.8,,6.8,,0,,74.5,,---,,
1920,6,17.8,,9.5,,0,,63.1,,---,,
1920,7,17.4,,9.4,,0,,80.8,,---,,
1920,8,17.4,,9.2,,0,,51.1,,---,,
1920,9,16.6,,8.9,,0,,60,,---,,
1920,10,13.9,,7,,1,,138.5,,---,,
1920,11,11.1,,5.4,,2,,70.3,,---,,
1920,12,6.8,,1.2,,14,,78.9,,---,,
1921,1,9.9,,4.4,,2,,110.6,,---,,
1921,2,8.6,,3.2,,4,,25.4,,---,,
1921,3,10,,3,,4,,62.7,,---,,
1921,4,12.9,,3.2,,3,,25.4,,---,,
1921,5,14.7,,5.5,,1,,53.8,,---,,
1921,6,19.4,,9.1,,0,,7.7,,---,,
1921,7,22,,12.2,,0,,92.4,,---,,
1921,8,17.3,,10.1,,0,,92.1,,---,,
1921,9,17,,9.3,,0,,33,,---,,
1921,10,15.3,,8.7,,0,,72.7,,---,,
1921,11,9.8,,4.2,,3,,72.3,,---,,
1921,12,9.6,,4.7,,2,,84.8,,---,,
1922,1,7.2,,1.9,,6,,84.2,,---,,
1922,2,8.3,,2.6,,1,,69.7,,---,,
1922,3,9,,1.3,,9,,35.7,,---,,
1922,4,9.7,,0.2,,13,,79.7,,---,,
1922,5,16.1,,7.3,,0,,46.4,,---,,
1922,6,16.8,,8.4,,0,,55.2,,---,,
1922,7,16.6,,8.8,,0,,87.8,,---,,
1922,8,16,,9.4,,0,,98.3,,---,,
1922,9,15,,7.9,,0,,70.1,,---,,
1922,10,11.8,,5,,5,,33,,---,,
1922,11,9.6,,4.5,,4,,31.1,,---,,
1922,12,7.6,,3.1,,3,,75.3,,---,,
1923,1,8.9,,3.6,,2,,65.3,,---,,
1923,2,8.9,,3.4,,1,,143,,---,,
1923,3,10.3,,3.4,,1,,37.8,,---,,
1923,4,10.4,,3.4,,2,,83.6,,---,,
1923,5,12.5,,4.2,,0,,36.2,,---,,
1923,6,16.5,,8.8,,0,,27.9,,---,,
1923,7,19.6,,11.9,,0,,50.7,,---,,
1923,8,17.5,,10.2,,0,,122.6,,---,,
1923,9,15.1,,7.9,,0,,89.7,,---,,
1923,10,12.5,,6,,0,,89.9,,---,,
1923,11,6.4,,0.4,,14,,96.6,,---,,
1923,12,7.4,,2.4,,6,,76.9,,---,,
1924,1,7.9,,3,,4,,83.9,,---,,
1924,2,7.4,,1.8,,7,,29.4,,---,,
1924,3,8.2,,0.9,,10,,29.4,,---,,
1924,4,10.9,,2,,11,,65.7,,---,,
1924,5,14.5,,6.3,,0,,104.1,,---,,
1924,6,16.9,,9.5,,0,,61.2,,---,,
1924,7,17.5,,10.6,,0,,120.3,,---,,
1924,8,17.1,,10.3,,0,,113.7,,---,,
1924,9,15.1,,8.3,,0,,132.1,,---,,
1924,10,12.7,,5.5,,0,,71.1,,---,,
1924,11,10.3,,4.8,,3,,67.1,,---,,
1924,12,9.6,,4.3,,0,,101.5,,---,,
1925,1,8.2,,3.3,,1,,57.3,,---,,
1925,2,7.3,,1.2,,5,,92.3,,---,,
1925,3,9.1,,2,,8,,31.2,,---,,
1925,4,11.1,,2.4,,5,,72.4,,---,,
1925,5,13.4,,6.2,,0,,117.3,,---,,
1925,6,18.8,,9.2,,0,,28.1,,---,,
1925,7,19.2,,11.6,,0,,96.9,,---,,
1925,8,19,,10.4,,0,,43.6,,---,,
1925,9,15,,7.7,,0,,67,,---,,
1925,10,13.5,,6.9,,0,,63.2,,---,,
1925,11,7.6,,1.2,,12,,41.3,,---,,
1925,12,6.3,,0.7,,12,,64.3,,---,,
1926,1,8.2,,2.6,,6,,125,,---,,
1926,2,9.2,,3.9,,3,,57,,---,,
1926,3,9.4,,2.9,,6,,37.4,,---,,
1926,4,13.4,,5.2,,0,,46.9,,---,,
1926,5,13.8,,5.2,,1,,71.8,,---,,
1926,6,17.2,,8.6,,0,,68.8,,---,,
1926,7,20.4,,11.7,,0,,81.2,,---,,
1926,8,19.4,,10.8,,0,,83,,---,,
1926,9,17.2,,9.3,,0,,47.3,,---,,
1926,10,11.8,,4.1,,10,,75.8,,---,,
1926,11,8.6,,2.4,,4,,79.8,,---,,
1926,12,7,,2.2,,7,,30.7,,---,,
1927,1,7.6,,2.1,,6,,87.3,,---,,
1927,2,8.9,,2.1,,7,,36.6,,---,,
1927,3,10.2,,3.4,,4,,60.2,,---,,
1927,4,11.5,,3.6,,3,,35.8,,---,,
1927,5,15.4,,5.6,,0,,41,,---,,
1927,6,15.2,,6.5,,0,,77.8,,---,,
1927,7,18.9,,11.2,,0,,67.5,,---,,
1927,8,18.6,,11.1,,0,,115.5,,---,,
1927,9,15,,7.8,,0,,136.1,,---,,
1927,10,14,,6.5,,1,,58.9,,---,,
1927,11,9.3,,3,,7,,88.6,,---,,
1927,12,5.6,,1.3,,10,,47.4,,---,,
1928,1,8.5,,1.9,,4,,125.5,,---,,
1928,2,9.1,,3.1,,0,,101.7,,---,,
1928,3,8.3,,2.8,,5,,82.8,,---,,
1928,4,11.8,,3.6,,4,,47.9,,---,,
1928,5,15.4,,6.4,,0,,21.8,,---,,
1928,6,15.9,,7.9,,0,,110.3,,---,,
1928,7,18.2,,10.7,,0,,43.1,,---,,
1928,8,18.2,,9.9,,0,,174.8,,---,,
1928,9,15.9,,7.6,,0,,55.7,,---,,
1928,10,13,,7,,0,,122.3,,---,,
1928,11,10.2,,3.6,,5,,109.8,,---,,
1928,12,7.6,,2,,3,,64,,---,,
1929,1,5.5,,0.5,,13,,33.2,,27.4,,
1929,2,5.7,,1.7,,10,,57.8,,37.1,,
1929,3,12.6,,0.9,,14,,32.5,,170.4,,
1929,4,10.9,,2.4,,3,,23.6,,144.4,,
1929,5,15.4,,5.8,,0,,71.5,,192.5,,
1929,6,17.2,,7.9,,0,,47.9,,183.8,,
1929,7,19.3,,10.4,,0,,65.5,,130,,
1929,8,17.5,,10.6,,0,,141.8,,84.8,,
1929,9,17.9,,9.9,,0,,38.1,,134.6,,
1929,10,12.2,,5.5,,2,,140.9,,115.9,,
1929,11,9.6,,3.2,,5,,90.6,,49.8,,
1929,12,7.8,,2.1,,4,,153.9,,56,,
1930,1,7.3,,1.3,,8,,104.5,,44,,
1930,2,4.8,,-1.1,,18,,22.5,,71.9,,
1930,3,8.7,,1.6,,10,,56.6,,83.8,,
1930,4,11.8,,4,,2,,40.2,,153.1,,
1930,5,15.1,,6.3,,0,,41.4,,154.8,,
1930,6,19.1,,8.9,,0,,39.7,,237.6,,
1930,7,18.1,,11,,0,,85.2,,95.2,,
1930,8,17.5,,10.6,,0,,150.7,,106.6,,
1930,9,16.4,,8.9,,0,,76.8,,118.7,,
1930,10,12.6,,6.7,,0,,138.1,,70.9,,
1930,11,9.1,,2.5,,7,,80.4,,65.3,,
1930,12,7.5,,2.6,,4,,66.9,,30.2,,
1931,1,6.4,,1,,11,,71,,58.6,,
1931,2,7.6,,1.1,,7,,69,,53.3,,
1931,3,8.1,,1.5,,8,,35.5,,116.8,,
1931,4,11.6,,3.8,,1,,87.8,,116,,
1931,5,14.6,,6.6,,0,,94.2,,156.4,,
1931,6,17.2,,9.8,,0,,131.2,,123.3,,
1931,7,17.8,,11.3,,0,,148.5,,81.1,,
1931,8,17.8,,9.8,,0,,52.8,,158.9,,
1931,9,15.4,,7.9,,0,,51.5,,93.2,,
1931,10,12.8,,4.9,,5,,53.6,,108.3,,
1931,11,10.2,,4.3,,2,,120.4,,62.3,,
1931,12,8.8,,4.7,,2,,64.9,,19.1,,
1932,1,9.8,,4.2,,3,,78,,37.6,,
1932,2,7.7,,1,,11,,3.3,,73.7,,
1932,3,9.6,,1.3,,10,,47.6,,115.8,,
1932,4,10.8,,2,,4,,63.4,,155.5,,
1932,5,14.2,,6.2,,0,,70.4,,152.8,,
1932,6,19.6,,9.1,,0,,21.9,,198.1,,
1932,7,18.9,,11.5,,0,,134.7,,113.1,,
1932,8,18.8,,11,,0,,66.2,,104.7,,
1932,9,15.5,,7.8,,1,,80.1,,105.6,,
1932,10,12,,4.7,,1,,72.8,,107.2,,
1932,11,9.4,,3.7,,3,,53.1,,72.8,,
1932,12,8.4,,3.4,,3,,125.9,,46.6,,
1933,1,6.1,,0.4,,13,,56.2,,73,,
1933,2,7.4,,1.2,,12,,73.4,,57,,
1933,3,11,,3.5,,1,,51.8,,124.3,,
1933,4,13.2,,5.2,,3,,22.2,,121.3,,
1933,5,15.4,,6.8,,0,,65.7,,122.4,,
1933,6,19,,10.1,,0,,55.9,,167.3,,
1933,7,20.8,,12.5,,0,,70.1,,158.4,,
1933,8,20.2,,11.5,,0,,39.7,,148.8,,
1933,9,18.5,,9.4,,0,,4.2,,152.2,,
1933,10,13.2,,6.7,,0,,52.1,,65.5,,
1933,11,8.6,,2.6,,4,,24.4,,67.3,,
1933,12,6.5,,1.7,,10,,42.3,,31.9,,
1934,1,8.5,,2.9,,3,,74.5,,49.6,,
1934,2,8.4,,2.4,,6,,7,,64.8,,
1934,3,8.6,,1.2,,8,,46,,114.2,,
1934,4,10.6,,2.7,,4,,66.9,,113.3,,
1934,5,14.9,,6.5,,0,,74.9,,164,,
1934,6,19.2,,9.8,,0,,36.9,,192.5,,
1934,7,22.2,,12.2,,0,,64.6,,207.8,,
1934,8,17.6,,10.1,,0,,141,,114,,
1934,9,16.6,,9.1,,0,,119.3,,129.6,,
1934,10,12.3,,6.3,,1,,117.5,,70.2,,
1934,11,8.8,,3.5,,6,,18.2,,41.2,,
1934,12,10,,6,,0,,120.5,,28.7,,
1935,1,7.8,,3.1,,4,,37.4,,33.2,,
1935,2,8.8,,2.5,,7,,85.4,,76.6,,
1935,3,10.2,,3.5,,2,,33.2,,92.7,,
1935,4,12.1,,3.8,,0,,56.2,,162.1,,
1935,5,15.8,,5.3,,1,,22.2,,251.6,,
1935,6,17.6,,9.7,,0,,104.6,,151.2,,
1935,7,20.2,,10.4,,0,,30.5,,193.2,,
1935,8,19.5,,10.7,,0,,73.7,,135.2,,
1935,9,16,,8.6,,0,,98.6,,110.1,,
1935,10,12.6,,5.8,,1,,88.6,,81,,
1935,11,8.6,,2.7,,4,,99.3,,81.3,,
1935,12,5.4,,0.4,,12,,60.6,,49.2,,
1936,1,5.3,,0.5,,15,,85.2,,33.7,,
1936,2,6.6,,0.8,,10,,46.4,,74.4,,
1936,3,10.1,,4,,3,,43.4,,72.9,,
1936,4,11,,1.9,,12,,15.6,,169.6,,
1936,5,15.5,,6.3,,0,,41,,174.4,,
1936,6,18.6,,9.2,,0,,111,,189,,
1936,7,18.1,,11.1,,0,,152.6,,99,,
1936,8,19.9,,11.5,,0,,46.3,,152.7,,
1936,9,17.1,,9.8,,0,,111.5,,106.9,,
1936,10,13.4,,5.9,,2,,73,,92.1,,
1936,11,8.1,,2,,8,,90.4,,49.1,,
1936,12,8.3,,2.8,,2,,81.3,,39.2,,
1937,1,7.9,,2.5,,5,,116.8,,45.1,,
1937,2,7.9,,1.8,,5,,86.2,,69.1,,
1937,3,7,,-0.1,,17,,58.2,,107,,
1937,4,12.5,,5.8,,0,,57.5,,49.1,,
1937,5,16.6,,7.1,,0,,27.6,,197.7,,
1937,6,17.5,,9.2,,0,,54.4,,111.8,,
1937,7,19,,10.9,,0,,83.1,,93.2,,
1937,8,20.3,,11.4,,0,,74.8,,139,,
1937,9,16.4,,8.5,,0,,60,,106.6,,
1937,10,12.4,,5,,3,,68.8,,71.7,,
1937,11,9.3,,3.7,,4,,32.7,,49.5,,
1937,12,5.7,,0.6,,11,,56.6,,35.2,,
1938,1,8.3,,2.5,,3,,98.2,,25.9,,
1938,2,8.5,,2.5,,4,,31,,58.8,,
1938,3,12.7,,6.2,,1,,25.6,,87.6,,
1938,4,13.6,,2.4,,5,,2.3,,195.9,,
1938,5,14.3,,5.8,,1,,97.8,,140.6,,
1938,6,17.1,,8.9,,0,,91.5,,129.3,,
1938,7,17.9,,10.4,,0,,121.8,,96.4,,
1938,8,19.2,,10.2,,0,,65.6,,144.2,,
1938,9,17.2,,9.8,,0,,55.5,,91.1,,
1938,10,13.3,,6.8,,0,,139.3,,88.3,,
1938,11,11,,6.1,,0,,103.2,,54.9,,
1938,12,7.2,,1.2,,9,,84.8,,43.1,,
1939,1,6,,0.4,,14,,76.7,,58.3,,
1939,2,9.2,,3.7,,1,,51.9,,41,,
1939,3,10.1,,3,,2,,77.4,,99.2,,
1939,4,12.6,,4.1,,3,,61,,148.5,,
1939,5,16.1,,6.5,,0,,30.6,,170.1,,
1939,6,19.3,,8.2,,0,,49.7,,233,,
1939,7,18.5,,10.8,,0,,113.2,,95.8,,
1939,8,19.8,,10.9,,0,,41.3,,146.5,,
1939,9,16.9,,9,,0,,45.8,,86.1,,
1939,10,12.3,,4.4,,6,,92.6,,116.3,,
1939,11,11.1,,5.3,,0,,125.9,,51.5,,
1939,12,6.2,,1.4,,9,,60.4,,30,,
1940,1,4.3,,-1.2,,17,,77.4,,56.4,,
1940,2,7.3,,2.2,,5,,71.7,,38.8,,
1940,3,10.3,,2.7,,7,,99,,94.3,,
1940,4,12.7,,5.1,,2,,75.2,,108.1,,
1940,5,16.6,,7,,0,,23.8,,168.3,,
1940,6,21.4,,10,,0,,40.8,,256,,
1940,7,18.1,,9.6,,0,,134.7,,121.7,,
1940,8,19.7,,10.7,,0,,13.8,,115.6,,
1940,9,16.4,,7.7,,0,,66.5,,108,,
1940,10,12.4,,6.6,,1,,109,,59.1,,
1940,11,9.9,,3.4,,3,,71.9,,71.5,,
1940,12,7.1,,1.2,,8,,91.6,,26.3,,
1941,1,3.4,,-1.5,,17,,41.8,,42.8,,
1941,2,7.3,,-0.2,,15,,75.1,,89.9,,
1941,3,9.3,,4.1,,0,,89.4,,112.6,,
1941,4,9.7,,4.1,,2,,42.1,,113.5,,
1941,5,14.6,,4.6,,2,,60.7,,166.9,,
1941,6,18.8,,9.6,,0,,15.7,,139.3,,
1941,7,19.2,,11.2,,0,,73.6,,105.6,,
1941,8,18.5,,10,,0,,101.7,,141.1,,
1941,9,19,,10.8,,0,,26,,107.4,,
1941,10,14.4,,6.8,,2,,91.3,,97.3,,
1941,11,9.9,,3.6,,2,,94.7,,61.5,,
1941,12,8.8,,3.8,,3,,39.3,,29.1,,
1942,1,6.8,,1.4,,9,,123.7,,59.8,,
1942,2,6,,-0.2,,13,,30.2,,65.6,,
1942,3,9.7,,2.8,,7,,75,,80.2,,
1942,4,13.3,,4.5,,0,,57.6,,203.5,,
1942,5,15.5,,6.1,,0,,81,,212,,
1942,6,18.9,,9,,0,,4.6,,174,,
1942,7,18.9,,10.5,,0,,113.4,,141,,
1942,8,18.6,,11.4,,0,,108,,83.8,,
1942,9,16,,9.2,,1,,105.8,,114.2,,
1942,10,12.6,,6,,1,,56.4,,80.5,,
1942,11,9.3,,2,,7,,13.4,,68.5,,
1942,12,9.9,,4.4,,2,,98,,28.4,,
1943,1,8.1,,3.2,,4,,99.4,,62.8,,
1943,2,10,,3.9,,0,,46.4,,78.8,,
1943,3,10.6,,3.8,,1,,29.7,,114.7,,
1943,4,14,,6.1,,0,,35.3,,119.7,,
1943,5,15.7,,5.8,,1,,85.6,,217.3,,
1943,6,18.6,,9.4,,0,,76.5,,188,,
1943,7,20.4,,10.7,,0,,66.2,,196.5,,
1943,8,18,,10.7,,0,,100.9,,109.7,,
1943,9,16,,8.7,,0,,52,,97.2,,
1943,10,13.9,,7.2,,0,,70.5,,92.9,,
1943,11,9.7,,3.4,,4,,57.3,,54.4,,
1943,12,7.4,,2.6,,3,,56.3,,22.9,,
1944,1,9.2,,4.3,,1,,54.7,,30.9,,
1944,2,8.1,,1.2,,6,,24,,83.8,,
1944,3,10.8,,1.6,,10,,20.3,,114.3,,
1944,4,14.6,,6.1,,1,,50.4,,123.6,,
1944,5,15.8,,6.6,,0,,41.6,,148.4,,
1944,6,17.2,,8.5,,0,,99,,99.7,,
1944,7,19.1,,12.1,,0,,66.3,,84.5,,
1944,8,20.3,,11.2,,0,,102,,151,,
1944,9,15.9,,7.9,,0,,105.4,,111.7,,
1944,10,12.3,,5.5,,0,,111,,84.8,,
1944,11,9.1,,3,,5,,120.2,,46.3,,
1944,12,7.4,,2.1,,3,,103.6,,28.6,,
1945,1,4.2,,-1.9,,18,,52.3,,42.9,,
1945,2,10.7,,4.6,,2,,67.9,,58.8,,
1945,3,12.3,,5.5,,1,,33.3,,88.2,,
1945,4,14.3,,5.5,,1,,39.5,,166.8,,
1945,5,16,,6.5,,2,,89.2,,145,,
1945,6,17.7,,9.7,,0,,106.2,,134.4,,
1945,7,19.7,,11.6,,0,,88.6,,120.8,,
1945,8,20.3,,10.9,,0,,42.2,,143.6,,
1945,9,18,,10.1,,0,,63.3,,96.4,,
1945,10,14.8,,7.8,,0,,84.9,,78.9,,
1945,11,10.6,,4.7,,4,,12,,42,,
1945,12,9.3,,4,,2,,63.2,,---,,
1946,1,7,,1.3,,6,,107.8,,---,,
1946,2,8.9,,3.3,,6,,54.8,,---,,
1946,3,10.4,,2.3,,5,,27.5,,---,,
1946,4,14,,4,,2,,21.6,,---,,
1946,5,15.3,,4.8,,1,,22.6,,---,,
1946,6,17.2,,8.6,,0,,78.3,,---,,
1946,7,18.8,,10.6,,0,,79.7,,---,,
1946,8,17.5,,9.4,,0,,120,,---,,
1946,9,16.3,,9.8,,0,,149.3,,---,,
1946,10,12.3,,7.2,,0,,30.5,,---,,
1946,11,10.2,,4.4,,3,,113.8,,---,,
1946,12,6.9,,0.8,,9,,97.3,,---,,
1947,1,6.2,,0.9,,8,,56.3,,40.9,,
1947,2,2.1,,-2.1,,23,,26.6,,46.1,,
1947,3,6.7,,0,,12,,114.7,,78.1,,
1947,4,12.2,,4,,3,,91.4,,121.6,,
1947,5,16,,7.7,,0,,76.5,,181.9,,
1947,6,18.1,,10.1,,0,,95,,143.9,,
1947,7,18.8,,10.7,,0,,82.4,,---,,
1947,8,23.2,,11.7,,0,,14.2,,---,,
1947,9,17.5,,9.3,,0,,68.2,,101.5,,
1947,10,14.6,,7.7,,0,,49.2,,92.4,,
1947,11,10.3,,3.9,,8,,101.6,,79.7,,
1947,12,7.1,,3.2,,5,,80.8,,21.2,,
1948,1,6.6,,1.3,,8,,170.8,,40.1,,
1948,2,7.9,,2.2,,6,,46.2,,56,,
1948,3,13.2,,4.3,,1,,66,,122.6,,
1948,4,13.7,,4.5,,1,,63.5,,172,,
1948,5,16.3,,5,,2,,58.2,,222.3,,
1948,6,16.8,,8.8,,0,,110.1,,126.4,,
1948,7,19.1,,10.5,,0,,62,,149.5,,
1948,8,18.2,,10.6,,0,,89,,107.7,,
1948,9,16.5,,9.4,,0,,66.6,,97.6,,
1948,10,13.6,,6.4,,2,,56.8,,87.5,,
1948,11,11.5,,5,,4,,67.2,,75.8,,
1948,12,8.4,,2.8,,4,,114.9,,47.9,,
1949,1,9.3,,3.1,,5,,61.2,,43.8,,
1949,2,9.5,,3.1,,2,,63.9,,83.6,,
1949,3,10.5,,2.6,,6,,53.5,,122.1,,
1949,4,13.7,,5.5,,1,,55.5,,139.7,,
1949,5,15.7,,5.6,,0,,48.2,,208.5,,
1949,6,20.5,,9.2,,0,,24.9,,252.9,,
1949,7,20,,11.8,,0,,69.3,,121.9,,
1949,8,19.4,,11.8,,0,,77,,113.4,,
1949,9,18.8,,10.4,,0,,62.7,,153.1,,
1949,10,14.3,,7.9,,1,,122.9,,73.8,,
1949,11,9.9,,3.6,,3,,61.5,,70.1,,
1949,12,8.5,,2.6,,3,,116.4,,30.4,,
1950,1,8.4,,3.3,,5,,43.3,,41.4,,
1950,2,8.1,,1.5,,7,,73.3,,63,,
1950,3,11.9,,3.9,,2,,27.5,,125.6,,
1950,4,11.3,,3.3,,3,,103.2,,130.4,,
1950,5,16.1,,6.6,,0,,21.6,,199,,
1950,6,19.7,,10.2,,0,,71.9,,180.1,,
1950,7,18.8,,11.1,,0,,120.8,,146.2,,
1950,8,18.2,,10.7,,0,,134.7,,136.9,,
1950,9,15.5,,8.3,,0,,139.2,,106.5,,
1950,10,12.6,,6.4,,1,,91.6,,86.2,,
1950,11,8.2,,1.3,,7,,67,,74.8,,
1950,12,4.1,,-0.8,,16,,67.8,,34.8,,
1951,1,6.6,,1.5,,9,,67.2,,55.3,,
1951,2,6.5,,-0.2,,12,,76.8,,78.8,,
1951,3,7.9,,1.1,,8,,70.7,,90.3,,
1951,4,10.2,,3.4,,1,,43.8,,161.8,,
1951,5,13.8,,4.9,,0,,38.1,,196.7,,
1951,6,18.1,,8.4,,0,,53.6,,207.3,,
1951,7,18.8,,11.6,,0,,85.1,,112,,
1951,8,17.7,,10.6,,0,,111.4,,132.8,,
1951,9,16.7,,10,,0,,50.8,,93.7,,
1951,10,13.8,,7.1,,0,,21.2,,92,,
1951,11,10.4,,4.7,,2,,139.2,,45.4,,
1951,12,8.4,,2.5,,7,,105.6,,35.3,,
1952,1,5.5,,-0.6,,18,,116.5,,50.8,,
1952,2,7.5,,1,,15,,25.6,,57.3,,
1952,3,10.2,,3.6,,5,,33.9,,113.5,,
1952,4,13.5,,5.1,,1,,38.7,,145.3,,
1952,5,16.7,,7.6,,0,,25.7,,171.5,,
1952,6,17.2,,9,,0,,56.4,,145.1,,
1952,7,19.7,,11.7,,0,,40.7,,105.8,,
1952,8,18.6,,10.7,,0,,42.1,,108.4,,
1952,9,14.4,,6.1,,0,,27,,105.6,,
1952,10,12.6,,5.5,,2,,44.4,,121.3,,
1952,11,7.7,,1.5,,10,,46.1,,52.7,,
1952,12,6.4,,0.8,,12,,85.4,,---,,
1953,1,7.5,,2.2,,8,,19.7,,41.8,,
1953,2,8.9,,2.8,,8,,34.2,,51.1,,
1953,3,10.6,,0.9,,12,,7,,111.5,,
1953,4,11.4,,1.9,,3,,30.4,,154.7,,
1953,5,17.3,,8.1,,0,,32.6,,204.9,,
1953,6,18.1,,9.2,,0,,34.3,,158.5,,
1953,7,18.5,,10.7,,0,,60,,134.9,,
1953,8,18.9,,10.8,,0,,33.8,,130.1,,
1953,9,17.4,,10.5,,0,,36.2,,92.3,,
1953,10,13.5,,6.7,,0,,33.4,,83.7,,
1953,11,10.7,,5.3,,0,,38.7,,53.1,,
1953,12,9.7,,4.5,,3,,50.9,,31.8,,
1954,1,7.1,,1.9,,10,,46.4,,39.1,,
1954,2,6.9,,1.5,,6,,54.2,,41.4,,
1954,3,9.4,,3,,6,,33.1,,100.6,,
1954,4,12.8,,3,,3,,14,,170.7,,
1954,5,15.1,,6.4,,1,,50.9,,161.7,,
1954,6,16.5,,8.8,,0,,32.4,,114.2,,
1954,7,17,,10,,0,,49.3,,85.6,,
1954,8,17.5,,9.7,,0,,37.9,,116.5,,
1954,9,15.3,,7.8,,0,,65.4,,135.2,,
1954,10,14.2,,7.5,,1,,60.2,,60.5,,
1954,11,9.5,,3,,3,,46.8,,51.9,,
1954,12,9.2,,4.5,,1,,48.8,,23.9,,
1955,1,5.7,,0.4,,12,,55.6,,53.3,,
1955,2,5.1,,-1.5,,16,,27.7,,70.6,,
1955,3,8.8,,-0.3,,18,,18.3,,140.4,,
1955,4,14.6,,4.7,,1,,70.3,,173.8,,
1955,5,13.8,,5.5,,0,,73.5,,203.7,,
1955,6,16.4,,9.1,,0,,107.5,,103.3,,
1955,7,22.2,,11,,0,,50.3,,217.8,,
1955,8,21.7,,12.5,,0,,27.4,,132.9,,
1955,9,18,,9.9,,0,,83.5,,144.6,,
1955,10,13,,5.1,,2,,37.7,,101.7,,
1955,11,10.3,,5.4,,2,,51.4,,40.4,,
1955,12,8.8,,3,,4,,102.9,,30.1,,
1956,1,6.6,,0.9,,13,,50.1,,46.2,,
1956,2,5.7,,-0.9,,19,,26.7,,73.1,,
1956,3,10.4,,3.8,,2,,67.1,,114.6,,
1956,4,12.6,,3,,6,,27.6,,152.1,,
1956,5,16.1,,7,,1,,33.1,,170.1,,
1956,6,17.4,,8.2,,0,,62.7,,179.7,,
1956,7,18.8,,11.1,,0,,95.5,,133.8,,
1956,8,16.9,,9.1,,0,,150,,129.3,,
1956,9,16.2,,10,,0,,84.5,,74.1,,
1956,10,13.1,,6.2,,1,,49.4,,96.6,,
1956,11,9.9,,4.6,,1,,58,,40.6,,
1956,12,8.8,,4.2,,3,,138.1,,23.7,,
1957,1,8.5,,1.8,,9,,114.4,,57.9,,
1957,2,8.6,,1.8,,7,,51.4,,85,,
1957,3,12.2,,6.5,,1,,62.3,,62.7,,
1957,4,13.2,,4.2,,0,,29.8,,173.5,,
1957,5,15.2,,5.8,,1,,61.8,,187.9,,
1957,6,19.9,,8.3,,0,,35.6,,244.1,,
1957,7,18.3,,11.6,,0,,93.8,,65,,
1957,8,18.1,,11,,0,,141.4,,111.4,,
1957,9,15.2,,8.3,,0,,98.3,,88.9,,
1957,10,13.2,,6.9,,0,,88.6,,62.8,,
1957,11,9.4,,3.8,,5,,25.2,,55.7,,
1957,12,8.2,,2.7,,3,,109.3,,48.9,,
1958,1,7,,1.5,,9,,86.4,,57.2,,
1958,2,8.3,,2.1,,8,,99.3,,59.8,,
1958,3,7.4,,0.9,,13,,35.1,,100.9,,
1958,4,11.9,,3.9,,4,,30.6,,133.3,,
1958,5,14.6,,5.3,,0,,67.2,,193.6,,
1958,6,17,,9.3,,0,,137.5,,121.5,,
1958,7,19.2,,11.3,,0,,138.2,,144.4,,
1958,8,18.3,,11.2,,0,,99.1,,108.4,,
1958,9,18,,11,,0,,74.2,,102.3,,
1958,10,13.7,,7.6,,0,,99.5,,86.6,,
1958,11,10.6,,5.2,,1,,42.4,,48.1,,
1958,12,7.2,,1.7,,5,,131.4,,35.8,,
1959,1,5.5,,-1,,19,,55.9,,82.7,,
1959,2,9.2,,2.2,,8,,25.9,,56.9,,
1959,3,11.4,,4.3,,0,,59.5,,119.3,,
1959,4,13.2,,4.4,,0,,73.8,,157.2,,
1959,5,17.9,,6.7,,1,,33.6,,229.1,,
1959,6,19.5,,9.5,,0,,50.5,,223.4,,
1959,7,20.4,,11.7,,0,,84.2,,143.1,,
1959,8,20.4,,11.8,,0,,26.1,,141.7,,
1959,9,19.2,,8.7,,0,,40.4,,140.5,,
1959,10,15.8,,8.8,,0,,99.8,,104.1,,
1959,11,10,,3.5,,2,,81.9,,73.3,,
1959,12,8.5,,2.5,,2,,116,,41,,
1960,1,7.6,,1,,15,,79.4,,42.8,,
1960,2,7.4,,0.1,,17,,78.1,,105.4,,
1960,3,9.4,,4,,0,,51.6,,66,,
1960,4,14.1,,4.9,,0,,64.1,,159.7,,
1960,5,17.7,,7.9,,0,,85,,196.2,,
1960,6,19.7,,10.2,,0,,72.6,,225.3,,
1960,7,18.4,,10.6,,0,,98.5,,143.9,,
1960,8,18.4,,10,,0,,97.9,,144.8,,
1960,9,16.5,,8.5,,0,,83.8,,119.7,,
1960,10,13,,6.7,,0,,129.3,,62.2,,
1960,11,9.9,,3.6,,3,,84.6,,60.4,,
1960,12,5.9,,-0.2,,13,,77.5,,65,,
1961,1,7.1,,0.5,,8,,91.3,,54.4,,
1961,2,10.4,,4.4,,2,,78.1,,67.3,,
1961,3,12.6,,5.6,,0,,27.8,,86,,
1961,4,13.1,,5.1,,2,,131.8,,108.2,,
1961,5,15.2,,6.3,,0,,77,,178.4,,
1961,6,17.7,,9.2,,0,,41.5,,143.1,,
1961,7,17.9,,9.9,,0,,47.8,,89.8,,
1961,8,18.5,,10.2,,0,,64.3,,137.1,,
1961,9,17.4,,9.5,,0,,93.6,,116.3,,
1961,10,13.3,,6.7,,0,,101.3,,104.3,,
1961,11,9.3,,3.2,,3,,58.2,,63.7,,
1961,12,5.7,,-0.4,,19,,63.6,,34.2,,
1962,1,7.8,,1,,7,,77.1,,52.2,,
1962,2,8.4,,2.2,,5,,36,,63.9,,
1962,3,7.9,,-0.7,,16,,54.8,,126.4,,
1962,4,12.8,,3.1,,4,,51.7,,194.9,,
1962,5,15.3,,5.5,,0,,72.2,,211.6,,
1962,6,17.6,,8,,0,,33.5,,174.5,,
1962,7,18,,10.1,,0,,52.3,,103.5,,
1962,8,18,,9.6,,0,,83.3,,154.9,,
1962,9,15.1,,8.3,,0,,166,,70.9,,
1962,10,13.9,,7,,0,,41.7,,91.4,,
1962,11,8.8,,3.5,,3,,49.6,,39.7,,
1962,12,7.2,,1.2,,9,,88.8,,36.1,,
1963,1,2.3,,-2.8,,27,,39.1,,59.7,,
1963,2,4.3,,-1.9,,23,,63,,71.8,,
1963,3,10.9,,2.7,,8,,90.9,,119.5,,
1963,4,12.4,,4.1,,1,,71.4,,133.2,,
1963,5,14.5,,5.4,,0,,71,,182,,
1963,6,18.5,,9.4,,0,,120.8,,164,,
1963,7,18.4,,10,,0,,38.2,,168,,
1963,8,17.6,,10.3,,0,,103,,112.4,,
1963,9,16.3,,8.5,,0,,58.4,,129.5,,
1963,10,14.2,,7.8,,0,,100.2,,75.2,,
1963,11,10,,3.7,,5,,139.1,,48.9,,
1963,12,6.2,,1,,11,,19.4,,51.3,,
1964,1,7.9,,2.9,,1,,48.6,,27.3,,
1964,2,7.9,,2.4,,9,,31.3,,64.2,,
1964,3,8.5,,2.2,,8,,65.8,,69.5,,
1964,4,12.8,,5,,1,,52.7,,121.2,,
1964,5,16.5,,8.1,,0,,46.9,,169.8,,
1964,6,17,,9.5,,0,,56,,126.3,,
1964,7,19.1,,11.2,,0,,42,,110.6,,
1964,8,18.6,,10.5,,0,,96.6,,146.5,,
1964,9,17.5,,9.3,,0,,61.8,,128.3,,
1964,10,12.5,,5.6,,0,,132.9,,67.5,,
1964,11,10.3,,3.5,,6,,59.7,,67.3,,
1964,12,6.9,,0.8,,10,,89.1,,41.8,,
1965,1,6,,0.1,,13,,112.6,,62.2,,
1965,2,6.7,,0.7,,11,,7.7,,44.9,,
1965,3,9.5,,1.8,,6,,62.5,,117.1,,
1965,4,12.6,,3.9,,1,,74.6,,153.6,,
1965,5,15.4,,7.3,,1,,56,,137.3,,
1965,6,18.3,,9.7,,0,,86.4,,135.4,,
1965,7,17.5,,9.2,,0,,65.3,,125.3,,
1965,8,17.8,,10.2,,0,,89.1,,124.6,,
1965,9,15.5,,7.9,,0,,68.2,,70.8,,
1965,10,14.2,,7.4,,0,,59,,75.5,,
1965,11,7.3,,1.7,,10,,118.5,,70.8,,
1965,12,7.6,,1.4,,6,,96.8,,52.3,,
1966,1,6.2,,1.9,,10,,69.5,,29.5,,
1966,2,7.8,,3.6,,0,,116.5,,41.2,,
1966,3,11.6,,3.9,,1,,60.7,,124.8,,
1966,4,9.9,,3.7,,4,,101.5,,88.9,,
1966,5,15.9,,6.3,,0,,69.4,,219.5,,
1966,6,18.9,,11.1,,0,,103.1,,140.3,,
1966,7,19,,10.2,,0,,35.9,,164.1,,
1966,8,17.9,,9.7,,0,,67.5,,128.2,,
1966,9,17.7,,10.1,,0,,68.6,,106.1,,
1966,10,12.8,,5.4,,1,,144.1,,103.6,,
1966,11,8,,1.7,,8,,84.9,,63,,
1966,12,8.2,,2.3,,4,,111.4,,40.5,,
1967,1,7.6,,2.4,,7,,51.3,,50.3,,
1967,2,8.8,,2.4,,2,,72.1,,83.9,,
1967,3,10.1,,3.3,,3,,62.6,,115.1,,
1967,4,13.4,,4.1,,1,,42,,140.3,,
1967,5,13.8,,5.3,,2,,108.9,,140.5,,
1967,6,18.5,,9,,0,,28.8,,165.9,,
1967,7,19.6,,11.1,,0,,93.7,,97.6,,
1967,8,18.7,,10.5,,0,,83.5,,127.2,,
1967,9,17,,9.1,,0,,115.6,,120.9,,
1967,10,12.9,,5.9,,0,,124.1,,88,,
1967,11,9.3,,2,,7,,54.1,,75,,
1967,12,7.1,,1.9,,11,,67.8,,41.1,,
1968,1,7.8,,2.5,,7,,87.3,,33.6,,
1968,2,5.8,,-1.4,,22,,34,,92.6,,
1968,3,10.4,,2.3,,3,,57.2,,100.7,,
1968,4,12.4,,3.4,,9,,56.8,,151.7,,
1968,5,14,,4.8,,3,,52.8,,156.8,,
1968,6,19.5,,9.1,,0,,66.3,,215.5,,
1968,7,19.1,,9.9,,0,,23.9,,127.6,,
1968,8,20.4,,10.1,,0,,53.8,,177.9,,
1968,9,17,,9.1,,0,,87.2,,108.3,,
1968,10,15,,9.3,,0,,94.4,,59,,
1968,11,9.5,,4.1,,4,,94,,46.9,,
1968,12,6.7,,1.3,,14,,69.1,,32.7,,
1969,1,7.1,,2.2,,8,,110.5,,29.4,,
1969,2,4.2,,-1.8,,16,,59.2,,65.9,,
1969,3,7.3,,0.3,,13,,33.3,,82.8,,
1969,4,12.7,,2.3,,8,,64.6,,184.8,,
1969,5,14.8,,6.4,,0,,102.2,,128.8,,
1969,6,18.3,,8.3,,0,,60.4,,190,,
1969,7,20.2,,11.4,,0,,33.8,,165.9,,
1969,8,19.3,,11.6,,0,,54.3,,135.3,,
1969,9,17,,9.5,,0,,21.5,,77.2,,
1969,10,16.1,,9.2,,0,,37.2,,64.8,,
1969,11,7.2,,0.9,,15,,128.3,,61.5,,
1969,12,6.8,,1.6,,9,,75.2,,31.7,,
1970,1,6.5,,1,,11,,76.1,,24.7,,
1970,2,5.8,,-0.3,,16,,103.7,,81.3,,
1970,3,8.6,,1,,13,,57.2,,105.8,,
1970,4,11.2,,2.7,,9,,67.1,,126.7,,
1970,5,16.9,,8.4,,0,,37.9,,109.2,,
1970,6,20.5,,11.1,,0,,56.7,,184,,
1970,7,18.3,,10,,0,,94.8,,90,,
1970,8,20,,10.5,,0,,102.2,,132.9,,
1970,9,17,,9.4,,0,,76.4,,79.6,,
1970,10,13.3,,7.4,,0,,80,,59,,
1970,11,9.4,,3.9,,3,,98,,62.7,,
1970,12,7.1,,1.9,,8,,33,,50.3,,
1971,1,7.5,,2.4,,6,,47.8,,54.2,,
1971,2,8.4,,2.6,,5,,54.3,,55.2,,
1971,3,9.8,,1.9,,7,,28.8,,76.2,,
1971,4,12.1,,3.9,,2,,82.9,,116.6,,
1971,5,15.6,,6.3,,0,,49.9,,162.6,,
1971,6,16.3,,7.7,,0,,99.6,,125.8,,
1971,7,20.6,,11,,0,,54.4,,166.4,,
1971,8,18.2,,10.8,,0,,108.3,,100.1,,
1971,9,18.9,,8.9,,0,,31.9,,141.1,,
1971,10,14.7,,8.2,,2,,37.7,,87.6,,
1971,11,9.7,,3.4,,8,,81.4,,49.5,,
1971,12,9.1,,4.2,,6,,17,,26.4,,
1972,1,6.4,,0.6,,10,,109.6,,38.2,,
1972,2,7.5,,1.1,,7,,54.6,,69.8,,
1972,3,10,,1.6,,9,,82.4,,110.3,,
1972,4,13,,3.8,,2,,58.2,,129.7,,
1972,5,14.2,,5.8,,0,,85.1,,130,,
1972,6,15.6,,6.6,,0,,63.5,,139.8,,
1972,7,19.7,,10.2,,0,,56.4,,147.1,,
1972,8,17.8,,9.3,,0,,37.6,,96,,
1972,9,16.4,,6.4,,0,,9.8,,121.9,,
1972,10,13.5,,6.6,,0,,42.5,,84.8,,
1972,11,8.3,,2.3,,10,,82.6,,58,,
1972,12,8.8,,2.6,,9,,69.8,,48.3,,
1973,1,7.6,,2.8,,6,,93.8,,24.5,,
1973,2,7.1,,1.5,,11,,63.1,,64.6,,
1973,3,10.3,,2.1,,8,,27.6,,94.3,,
1973,4,11.5,,3,,5,,52.8,,123.8,,
1973,5,15,,6.3,,0,,59.8,,133.5,,
1973,6,19.1,,9.7,,0,,26.1,,157.9,,
1973,7,19.2,,11.3,,0,,72.3,,108.6,,
1973,8,19.7,,10.8,,0,,78.7,,124.9,,
1973,9,17.1,,9.1,,0,,52.1,,106.4,,
1973,10,12.1,,5.5,,4,,57.3,,79.1,,
1973,11,8.9,,2.9,,8,,75,,44.5,,
1973,12,7.8,,2.1,,6,,67.8,,41.5,,
1974,1,8.7,,3.4,,3,,117.1,,36.7,,
1974,2,7.9,,2.4,,6,,60.2,,59.6,,
1974,3,9.2,,2.1,,5,,31.8,,92.7,,
1974,4,13.8,,3,,2,,38,,198.1,,
1974,5,14.1,,6.5,,0,,86.7,,130.4,,
1974,6,17.1,,8.2,,0,,49.8,,154.4,,
1974,7,17.5,,10.3,,0,,97.8,,116.7,,
1974,8,18.7,,10.2,,0,,57.6,,155.7,,
1974,9,14.5,,7.4,,1,,99.3,,104.1,,
1974,10,10.7,,4.3,,1,,43.7,,81.6,,
1974,11,8.2,,2.2,,5,,71.6,,78.2,,
1974,12,9.6,,4.4,,2,,90.1,,30.5,,
1975,1,8.5,,3.4,,4,,110.3,,50.5,,
1975,2,8.1,,2.1,,6,,19.9,,74,,
1975,3,8.7,,1.4,,10,,41.5,,121.2,,
1975,4,12.9,,4.5,,5,,38.9,,139.1,,
1975,5,15.5,,4.7,,1,,15.4,,239.3,,
1975,6,19.7,,8.4,,0,,15,,213.1,,
1975,7,20.8,,11.8,,0,,34.3,,126.8,,
1975,8,21.6,,12,,0,,47.6,,148.1,,
1975,9,15.8,,8.4,,0,,143.5,,111.4,,
1975,10,13.4,,7.6,,2,,60.4,,79.3,,
1975,11,9.4,,3.3,,4,,41.1,,56.3,,
1975,12,7.9,,3,,6,,18,,25.9,,
1976,1,7.7,,3.4,,6,,79.1,,32.7,,
1976,2,7.6,,2.1,,8,,40.3,,44,,
1976,3,8.7,,2.4,,5,,55.6,,67.9,,
1976,4,13,,4.4,,2,,17.4,,149.1,,
1976,5,14.8,,6.6,,0,,102.1,,110.4,,
1976,6,20.2,,11.1,,0,,53.2,,174.4,,
1976,7,20.5,,12.4,,0,,53.2,,122.3,,
1976,8,22.4,,10.3,,0,,13.8,,237.6,,
1976,9,15.9,,8.6,,0,,85.2,,86.7,,
1976,10,11.9,,5.7,,0,,135.6,,74.7,,
1976,11,8.2,,2.8,,6,,30.7,,71.5,,
1976,12,3.9,,-0.4,,17,,82.2,,24.3,,
1977,1,4.9,,-0.2,,17,,89.4,,50.3,,
1977,2,6.7,,1.4,,6,,116.3,,40,,
1977,3,9.9,,3.8,,2,,64.6,,77,,
1977,4,11,,3.5,,5,,50.5,,137.8,,
1977,5,15.2,,4.6,,2,,20,,226.2,,
1977,6,17.5,,7.5,,0,,54,,170.3,,
1977,7,20.4,,11.6,,0,,21.8,,174.8,,
1977,8,19.2,,9.7,,0,,97.9,,173.7,,
1977,9,15.8,,8.7,,0,,47.2,,93.2,,
1977,10,14.2,,8.7,,0,,66,,79,,
1977,11,7,,1.2,,10,,91.5,,58.1,,
1977,12,8.2,,3.8,,3,,69.4,,20,,
1978,1,5.7,,0.8,,11,,77.4,,64.7,,
1978,2,5.9,,0.4,,12,,47.2,,61.7,,
1978,3,9.5,,2.8,,6,,85.4,,100.6,,
1978,4,10.6,,2.9,,4,,26.3,,109.1,,
1978,5,16.7,,6.5,,0,,28.6,,163.8,,
1978,6,16.9,,8.8,,0,,42.4,,123.5,,
1978,7,18.1,,10.5,,0,,55.8,,121.9,,
1978,8,17.8,,11,,0,,50.9,,73,,
1978,9,16.6,,10.2,,0,,72.2,,88.6,,
1978,10,14.2,,9.2,,0,,44.3,,88.4,,
1978,11,10.8,,5.3,,4,,77.2,,54.4,,
1978,12,6.4,,2,,9,,166,,42.8,,
1979,1,3.7,,-2.3,,23,,61.8,,55.7,,
1979,2,4.8,,-0.3,,16,,19.2,,58.5,,
1979,3,7.6,,0.7,,14,,72.3,,103.5,,
1979,4,10.8,,3.4,,2,,73.7,,121.7,,
1979,5,13.1,,4.5,,4,,99.4,,153.9,,
1979,6,17.7,,9.2,,0,,52.7,,134.4,,
1979,7,19.1,,11.3,,0,,34.7,,107.2,,
1979,8,18,,9.7,,0,,107.9,,123,,
1979,9,15.9,,8.5,,0,,40.8,,101.2,,
1979,10,13.5,,7.7,,1,,112.4,,89.4,,
1979,11,9.7,,3.3,,7,,98.7,,62.4,,
1979,12,6.6,,2,,10,,91.7,,45,,
1980,1,5.2,,-0.4,,19,,75,,41.7,,
1980,2,8.1,,2,,8,,72.9,,53.8,,
1980,3,8.2,,1.1,,10,,101.5,,95.2,,
1980,4,13.7,,4.3,,0,,14,,128.1,,
1980,5,16.2,,6.4,,0,,34.2,,220.1,,
1980,6,16.7,,9.1,,0,,96.8,,88.7,,
1980,7,17.4,,10.1,,0,,50.4,,96.9,,
1980,8,19.2,,10.9,,0,,59.6,,96.2,,
1980,9,17,,10.7,,0,,70.3,,92.5,,
1980,10,11.8,,5.4,,0,,112,,81,,
1980,11,9.2,,4,,6,,61.7,,52.2,,
1980,12,8.1,,2.3,,7,,99.9,,23.9,,
1981,1,7.9,,2.6,,6,,50.9,,37.1,,
1981,2,6.9,,1.5,,7,,47.3,,59.6,,
1981,3,10.9,,4,,0,,108,,76.3,,
1981,4,12.8,,3.8,,3,,47.7,,152.5,,
1981,5,15,,6.6,,1,,97.8,,126.8,,
1981,6,16.9,,8.8,,0,,85,,109.9,,
1981,7,18.3,,11.1,,0,,63.8,,95.9,,
1981,8,20,,11.1,,0,,35.9,,110,,
1981,9,17,,10,,0,,136.8,,110.3,,
1981,10,10.4,,3.4,,2,,110.6,,92.5,,
1981,11,10.1,,3.9,,3,,70.1,,48.2,,
1981,12,4,,-1.1,,16,,69.2,,17.8,,
1982,1,6.3,,0.9,,14,,79.9,,42.3,,
1982,2,8.1,,2,,9,,65.7,,61.2,,
1982,3,10.1,,2.1,,5,,101.6,,134.5,,
1982,4,14.1,,4.5,,2,,9,,141.5,,
1982,5,15.7,,6,,3,,30.7,,170.1,,
1982,6,18.6,,10.2,,0,,80,,132.6,,
1982,7,20.7,,11.1,,0,,15.1,,155.9,,
1982,8,18.9,,10.5,,0,,64.1,,122.9,,
1982,9,16.6,,9.3,,0,,69.3,,108.8,,
1982,10,12.8,,5.9,,0,,101.4,,77,,
1982,11,8.7,,3.3,,2,,131,,41.3,,
1982,12,6.9,,1.2,,13,,114.3,,41.5,,
1983,1,8.4,,2.8,,4,,76.5,,40.5,,
1983,2,5.5,,0,,13,,34.4,,67.5,,
1983,3,10.1,,3.9,,2,,79.6,,54.5,,
1983,4,10.7,,1.7,,11,,60.1,,147.6,,
1983,5,13.8,,6,,0,,67,,117.1,,
1983,6,17.4,,9.6,,0,,40.2,,114,,
1983,7,23.3,,12.6,,0,,15.1,,177.1,,
1983,8,21.4,,12.5,,0,,32.5,,117.1,,
1983,9,16.2,,9.5,,0,,67.6,,67.1,,
1983,10,13,,6.7,,2,,92.4,,79.7,,
1983,11,10.1,,4.1,,6,,28.4,,27.5,,
1983,12,8.8,,4,,6,,111.3,,29.8,,
1984,1,5.2,,-0.4,,15,,127.9,,38.7,,
1984,2,7.3,,1.5,,8,,94.7,,42.1,,
1984,3,8.2,,1.8,,5,,65.5,,71.3,,
1984,4,13.3,,3.8,,4,,13.9,,158.4,,
1984,5,15.9,,4.1,,0,,20.3,,214.1,,
1984,6,18.8,,10.2,,0,,47.4,,132.3,,
1984,7,21,,11,,0,,49.9,,173,,
1984,8,21.1,,11.7,,0,,87.2,,141.5,,
1984,9,15.9,,8.8,,0,,78.8,,96.5,,
1984,10,13.3,,6.1,,2,,79.7,,87.7,,
1984,11,8.7,,2.9,,5,,90.8,,48.4,,
1984,12,8,,2.4,,7,,81.6,,28.4,,
1985,1,3.2,,-2.2,,25,,46.8,,52.5,,
1985,2,6.5,,1,,14,,23.5,,69.6,,
1985,3,8.4,,1.4,,8,,57.6,,85.1,,
1985,4,12.7,,4.8,,2,,50.5,,126.5,,
1985,5,14.6,,6,,0,,63.2,,145.4,,
1985,6,17.1,,7.7,,0,,55.1,,154.3,,
1985,7,18.8,,11.2,,0,,99.4,,89.6,,
1985,8,16.9,,10,,0,,136.8,,98.3,,
1985,9,17.6,,10.2,,0,,88.3,,79.7,,
1985,10,13.8,,7.3,,0,,42.7,,71.2,,
1985,11,7.9,,-0.1,,18,,40.4,,62.7,,
1985,12,8.6,,3.2,,6,,60.1,,46.9,,
1986,1,6.5,,0.5,,12,,105,,41.6,,
1986,2,3.5,,-1.7,,19,,4.4,,68.1,,
1986,3,9.4,,1.8,,8,,71.3,,113.8,,
1986,4,10,,1.5,,7,,99.6,,138,,
1986,5,14,,6.5,,0,,98.4,,159.6,,
1986,6,18.6,,9.8,,0,,44.5,,141.1,,
1986,7,18,,11.2,,0,,51.6,,76.2,,
1986,8,16.2,,8.1,,0,,109.3,,110.3,,
1986,9,16.2,,6.7,,0,,4.2,,142.8,,
1986,10,13.6,,6.8,,0,,90.6,,105.4,,
1986,11,10.3,,3.5,,3,,83.2,,74.9,,
1986,12,8.2,,2.6,,5,,100.5,,40.6,,
1987,1,5.6,,0.1,,15,,31,,41.1,,
1987,2,8,,-0.2,,13,,35.4,,62.6,,
1987,3,8.6,,1.2,,11,,77.8,,71.7,,
1987,4,13.6,,5.2,,1,,41.9,,91.1,,
1987,5,15.2,,5.7,,0,,27.3,,170.6,,
1987,6,15.5,,8.1,,0,,91.4,,77.4,,
1987,7,19.9,,11.5,,0,,36.4,,109.5,,
1987,8,18.8,,11,,0,,105.1,,105.2,,
1987,9,16.3,,8.2,,0,,76.5,,145.8,,
1987,10,11.9,,4.5,,2,,128.5,,109.1,,
1987,11,9.4,,3.8,,4,,46.9,,52.9,,
1987,12,8.2,,2.6,,8,,34,,23.7,,
1988,1,7.1,,1.5,,6,,129.9,,55.5,,
1988,2,7.8,,1.5,,8,,76.8,,71.1,,
1988,3,9.7,,3.3,,2,,108.2,,80.6,,
1988,4,12.8,,4.6,,3,,30.6,,134,,
1988,5,15.7,,6.1,,0,,51.2,,172.6,,
1988,6,19.6,,9.6,,0,,37.4,,166.4,,
1988,7,17.4,,10.5,,0,,91.5,,114.6,,
1988,8,17.9,,10.5,,0,,86.5,,116.6,,
1988,9,15.9,,9.2,,0,,77.4,,108.3,,
1988,10,13.1,,6.2,,3,,89.2,,95.4,,
1988,11,9.3,,2.1,,8,,34.5,,66.8,,
1988,12,9.9,,5.4,,0,,67,,38.1,,
1989,1,9.7,,4.1,,0,,46.6,,55.5,,
1989,2,9,,2.4,,5,,48.1,,87.7,,
1989,3,10.6,,2.7,,3,,81.3,,112.4,,
1989,4,10.7,,2,,8,,89.8,,109.1,,
1989,5,17.2,,6.7,,0,,20,,227.5,,
1989,6,19.1,,9,,0,,34.3,,183.1,,
1989,7,23.8,,12.3,,0,,36.1,,243.8,,
1989,8,18.5,,11.5,,0,,88.2,,118.1,,
1989,9,16.3,,9.2,,0,,48.5,,98.5,,
1989,10,13.8,,8.3,,0,,93,,61.7,,
1989,11,8.9,,4,,5,,25.1,,45.2,,
1989,12,6.4,,1,,12,,54.5,,24.3,,
1990,1,9,,3.3,,1,,88.1,,58.6,,
1990,2,8.7,,2.6,,2,,153.7,,61,,
1990,3,11.3,,5.3,,2,,39.8,,88.9,,
1990,4,12.2,,3.5,,1,,48.5,,149.4,,
1990,5,17.1,,7.5,,0,,42.6,,165,,
1990,6,16.9,,9,,0,,69.5,,135.5,,
1990,7,20.2,,11.4,,0,,31.8,,214.9,,
1990,8,19.5,,12.6,,0,,90.6,,104.3,,
1990,9,16.1,,8,,0,,23.1,,120,,
1990,10,13.5,,8.2,,0,,147.7,,77.2,,
1990,11,9.5,,3.2,,7,,51,,73,,
1990,12,7.2,,1.2,,9,,97.3,,46.1,,
1991,1,6.3,,0.7,,14,,64,,69.4,,
1991,2,6.3,,-0.3,,14,,33.3,,48.4,,
1991,3,10.7,,3.9,,4,,85.8,,87.2,,
1991,4,11.3,,4.5,,0,,90,,147,,
1991,5,15.4,,7.1,,1,,6.6,,143.6,,
1991,6,15.7,,8,,0,,57,,114.3,,
1991,7,20.1,,12.7,,0,,20.1,,132.5,,
1991,8,20.1,,12,,0,,26,,153,,
1991,9,18.4,,9.1,,0,,39.4,,163.2,,
1991,10,12.3,,6.5,,0,,82.1,,70.8,,
1991,11,9.4,,3.4,,4,,84.2,,63.8,,
1991,12,8.8,,3.5,,3,,91.2,,31.2,,
1992,1,7.2,,2.4,,7,,59,,26.8,,
1992,2,9.1,,2.5,,6,,40.2,,55.5,,
1992,3,10.4,,4.5,,0,,95.7,,71.9,,
1992,4,11.3,,4.8,,0,,70.7,,79.5,,
1992,5,16.6,,7.9,,0,,36.8,,179.2,,
1992,6,19.5,,10.5,,0,,52.2,,158.6,,
1992,7,18.9,,11.3,,0,,59.4,,112.9,,
1992,8,17.3,,10.3,,0,,146.4,,143.3,,
1992,9,15.3,,8,,0,,64.2,,85.9,,
1992,10,11,,4,,2,,47.6,,85.5,,
1992,11,10,,4.1,,2,,101.3,,57.8,,
1992,12,7,,0.9,,9,,63.2,,40.4,,
1993,1,8.4,,3,,2,,90.3,,40.4,,
1993,2,8.9,,4.1,,4,,17.5,,24.8,,
1993,3,9.8,,3.2,,7,,39,,77.4,,
1993,4,12.7,,5.5,,0,,82.3,,112.1,,
1993,5,14.5,,6.5,,0,,129.8,,121.2,,
1993,6,17.6,,10.6,,0,,64.9,,88.3,,
1993,7,17.4,,11.2,,0,,78.8,,92.6,,
1993,8,17.5,,10.1,,0,,57.8,,140.4,,
1993,9,15.7,,8.6,,0,,97.7,,96.4,,
1993,10,11,,4.1,,5,,40.1,,87,,
1993,11,8.5,,2.4,,8,,45.1,,56.8,,
1993,12,7.3,,2.3,,5,,141.9,,34,,
1994,1,7.7,,1.9,,9,,90.7,,53.1,,
1994,2,6.1,,0.1,,13,,107.8,,48.6,,
1994,3,9.9,,3.8,,0,,86.8,,106.4,,
1994,4,11.7,,3.5,,1,,66.7,,174.4,,
1994,5,13.8,,5.9,,0,,39.7,,142.2,,
1994,6,16.4,,9.3,,0,,37.6,,102.9,,
1994,7,19.5,,11.8,,0,,59.2,,127.5,,
1994,8,17.9,,10.3,,0,,62.4,,113.4,,
1994,9,15.8,,8.3,,0,,63.2,,110.5,,
1994,10,13.5,,6.7,,0,,38.4,,112.9,,
1994,11,12.5,,6.3,,0,,56,,60.6,,
1994,12,8.9,,3.2,,4,,109.5,,49.9,,
1995,1,7.6,,1.4,,11,,103,,32.2,,
1995,2,8.8,,3,,1,,89.3,,58.3,,
1995,3,8.8,,1.9,,7,,60.4,,102.2,,
1995,4,13,,4.7,,5,,32.9,,149.1,,
1995,5,14.9,,6.6,,0,,25.9,,164.3,,
1995,6,19,,9.2,,0,,28.9,,227,,
1995,7,21.2,,12.7,,0,,41.5,,150.9,,
1995,8,23.8,,12.5,,0,,10.4,,242.7,,
1995,9,17.1,,9.1,,0,,60.3,,124.4,,
1995,10,15.4,,9.1,,0,,134.6,,105.1,,
1995,11,11,,5.2,,3,,152,,60.5,,
1995,12,5.6,,1,,11,,39.9,,31.5,,
1996,1,7.9,,4.3,,5,,77,,24.1,,
1996,2,7.2,,-0.4,,17,,65.9,,109.4,,
1996,3,7.8,,2.9,,2,,48.5,,47.6,,
1996,4,12.5,,4.8,,4,,93.2,,116.4,,
1996,5,13.3,,4.4,,2,,78.9,,170.5,,
1996,6,18.2,,9.1,,0,,23,,184.9,,
1996,7,19.2,,11.2,,0,,54.1,,138.4,,
1996,8,18.4,,11,,0,,83.5,,100.7,,
1996,9,17.6,,9.1,,0,,27.5,,142.8,,
1996,10,14.1,,8.1,,0,,76.1,,72.1,,
1996,11,8.8,,2.3,,12,,76.1,,72,,
1996,12,6.3,,1.4,,10,,48.2,,41.9,,
1997,1,6.7,,2.2,,10,,18.9,,20.5,,
1997,2,9.6,,2.8,,3,,94.6,,75.9,,
1997,3,11.7,,4.5,,6,,29.2,,88.6,,
1997,4,13.2,,5.4,,1,,34.6,,81.9,,
1997,5,15.6,,6.9,,1,,84.6,,201.9,,
1997,6,16.5,,9.1,,0,,91.6,,136.6,,
1997,7,19.5,,11.9,,0,,95.3,,122.5,,
1997,8,21,,13.3,,0,,43,,185,,
1997,9,16.9,,9.3,,0,,35.6,,145.9,,
1997,10,13.7,,7.2,,0,,67.4,,87,,
1997,11,11.3,,6.3,,1,,82.2,,47.3,,
1997,12,9.1,,3.5,,4,,85.5,,36.3,,
1998,1,7.6,,2.4,,8,,111.6,,55,,
1998,2,11.1,,5.7,,0,,15.6,,61,,
1998,3,11,,5.2,,0,,51.3,,60.1,,
1998,4,11,,4,,6,,76.8,,133.5,,
1998,5,16,,8,,0,,37.6,,137.7,,
1998,6,16.9,,9.5,,0,,84.8,,137.1,,
1998,7,17.9,,11.3,,0,,85.6,,127.2,,
1998,8,19,,11.7,,0,,55.1,,156.3,,
1998,9,17.3,,10.5,,0,,53.4,,106.9,,
1998,10,13.3,,7.2,,0,,118.4,,105.7,,
1998,11,9.9,,4.2,,2,,70.2,,66.6,,
1998,12,9.2,,3.5,,5,,89.9,,34.5,,
1999,1,7.6,,2.3,,5,,107.3,,45.3,,
1999,2,8.4,,3,,4,,50.9,,62.3,,
1999,3,11,,3.7,,3,,38.9,,128.3,,
1999,4,13.3,,5.8,,5,,63.6,,160.8,,
1999,5,15.6,,8.5,,0,,48.2,,120.6,,
1999,6,16.5,,9.2,,0,,40.2,,126.9,,
1999,7,20.7,,12.4,,0,,39.6,,187.3,,
1999,8,18.9,,11.7,,0,,65.1,,117.9,,
1999,9,17.5,,11.4,,0,,158.9,,106.9,,
1999,10,13.6,,7.9,,0,,30.5,,92.6,,
1999,11,10.6,,4.7,,1,,79.7,,52.4,,
1999,12,7.4,,1.7,,6,,153.6,,39.1,,
2000,1,8,,2.4,,6,,29.3,,41.9,,
2000,2,9.3,,2.9,,3,,79,,78.9,,
2000,3,11.1,,4.6,,2,,28.2,,82.9,,
2000,4,10.9,,3.3,,5,,105.6,,138.5,,
2000,5,16.6,,6.5,,0,,45.2,,233.1,,
2000,6,18,,10,,0,,51.5,,140.7,,
2000,7,20.1,,10.9,,0,,13.4,,119.1,,
2000,8,20.5,,11.5,,0,,110.6,,167.7,,
2000,9,17.6,,10.6,,0,,89.6,,114.6,,
2000,10,13,,6.8,,0,,109.1,,96.8,,
2000,11,9,,3.4,,1,,102.1,,42.1,,
2000,12,7.6,,2.6,,11,,115.8,,32.2,,
2001,1,6.2,,-0.1,,13,,35.6,,63.6,,
2001,2,8.4,,0.9,,13,,43,,87.5,,
2001,3,8.4,,1.7,,9,,55.4,,117.2,,
2001,4,11.7,,3.8,,2,,63.3,,124.8,,
2001,5,17.4,,7.5,,0,,51.7,,196.7,,
2001,6,17,,9.4,,0,,51.5,,125.8,,
2001,7,19.4,,11.5,,0,,41.1,,121.2,,
2001,8,19.5,,11.7,,0,,88.1,,152.2,,
2001,9,17.2,,9.8,,0,,52.2,,117.8,,
2001,10,15.3,,9.8,,0,,80.2,,90.7,,
2001,11,11,,5.6,,0,,41.6,,35.6,,
2001,12,7.8,,0.5,,15,,43.1,,77,,
2002,1,9.8,,3.8,,4,,78.9,,52.1,,
2002,2,9.6,,3.2,,2,,110.5,,84.4,,
2002,3,11.6,,3.8,,5,,56.5,,122.7,,
2002,4,13,,5.1,,2,,113.2,,170.6,,
2002,5,15.5,,7.2,,0,,107.8,,167.7,,
2002,6,16.9,,10.2,,0,,76.7,,128.4,,
2002,7,17.9,,11.2,,0,,102.8,,102,,
2002,8,19.7,,11.9,,0,,41.4,,119.4,,
2002,9,17.8,,9.8,,0,,39.9,,119.9,,
2002,10,12.7,,5.9,,1,,158,,79.4,,
2002,11,11.4,,6,,0,,133.9,,62,,
2002,12,7.5,,3.1,,6,,50.8,,36.9,,
2003,1,7.6,,1.7,,11,,70.4,,61.1,,
2003,2,8.2,,1.2,,11,,53.4,,88.1,,
2003,3,12.4,,2,,8,,32.1,,146.1,,
2003,4,14.3,,5.1,,3,,31.5,,169.4,,
2003,5,14.7,,7.4,,0,,108.6,,144.4,,
2003,6,18.3,,10.3,,0,,89.3,,170.5,,
2003,7,19.8,,13.1,,0,,78.7,,108.9,,
2003,8,21.1,,11.7,,0,,17.4,,183.6,,
2003,9,17.7,,9.6,,0,,52.2,,114.3,,
2003,10,12.8,,5.2,,3,,31.6,,96.8,,
2003,11,11,,4.8,,0,,64.6,,89,,
2003,12,8.4,,2.2,,8,,53.8,,51.7,,
2004,1,8.1,,2.6,,7,,79.1,,51.1,,
2004,2,8.9,,1.3,,14,,27.1,,100,,
2004,3,10.9,,3.1,,5,,58.5,,131,,
2004,4,12.9,,5.5,,0,,53.3,,150.8,,
2004,5,16.5,,7,,0,,51.9,,181.3,,
2004,6,19,,11.1,,0,,67.5,,144.2,,
2004,7,18.5,,11.1,,0,,49.7,,140.6,,
2004,8,20.2,,12.5,,0,,100.7,,166.2,,
2004,9,17.3,,10.7,,0,,77.5,,118,,
2004,10,12.6,,5.7,,1,,143.3,,99.1,,
2004,11,10.9,,6.2,,2,,36.6,,43.4,,
2004,12,9.4,,3.5,,4,,54.2,,50.7,,
2005,1,9.2,,3.6,,3,,86.7,,44.4,,
2005,2,8.3,,2,,6,,39.4,,71.1,,
2005,3,11.4,,4.2,,5,,47.2,,82.8,,
2005,4,12.5,,4.4,,1,,53.1,,139.6,,
2005,5,15.1,,6.1,,0,,76.7,,178.4,,
2005,6,18.7,,10.9,,0,,37.8,,114,,
2005,7,19.6,,12.2,,0,,66.9,,118.5,,
2005,8,19.3,,11.7,,0,,56.8,,140.2,,
2005,9,18,,11,,0,,68,,106.4,,
2005,10,14.8,,8.8,,0,,91.5,,72.1,,
2005,11,10,,2.8,,9,,47.1,,78.8,,
2005,12,8.6,,3,,7,,67.9,,32.2,,
2006,1,8.1,,2,,7,,29.8,,39.5,,
2006,2,8.5,,1,,12,,29.8,,86.6,,
2006,3,9.5,,2.1,,8,,90.5,,87,,
2006,4,12.7,,4,,3,,45.2,,164.2,,
2006,5,15.6,,6.9,,0,,95.7,,179.2,,
2006,6,20.3,,10.4,,0,,14.6,,186,,
2006,7,23.4,,12.7,,0,,57.9,,228.3,,
2006,8,19.3,,11.7,,0,,62.1,,103.3,,
2006,9,18.8,,11.3,,0,,112.4,,116.5,,
2006,10,15.7,,8.5,,0,,113.7,,98.5,,
2006,11,10.9,,4,,2,,82.4,,85.1,,
2006,12,9.1,,3.6,,4,,93.8,,51.4,,
2007,1,9.6,,3.4,,6,,78.2,,56.3,,
2007,2,9.5,,2.1,,7,,44.7,,76,,
2007,3,10.9,,2.8,,5,,66.8,,112.8,,
2007,4,16.4,,6.1,,0,,16.1,,203.6,,
2007,5,16.4,,6.9,,0,,49.8,,237.9,,
2007,6,18.7,,10.3,,0,,135.3,,126.1,,
2007,7,18.8,,10.9,,0,,131,,150,,
2007,8,18.9,,11.6,,0,,109.8,,118.2,,
2007,9,17.2,,10.1,,0,,25.8,,120.7,,
2007,10,15.6,,7.9,,1,,25.8,,100.1,,
2007,11,11.5,,6.1,,4,,58.5,,36.8,,
2007,12,9.6,,3,,4,,80.6,,45.2,,
2008,1,8.8,,3.1,,4,,133.5,,41.3,,
2008,2,10.2,,1.7,,9,,33.4,,90.4,,
2008,3,10.1,,2.4,,5,,90.2,,124.8,,
2008,4,12.8,,3.9,,4,,19.8,,187.1,,
2008,5,18.3,,8.1,,0,,20.4,,239.2,,
2008,6,18.1,,9.4,,0,,43.8,,160.4,,
2008,7,19.6,,12,,0,,94.9,,114.6,,
2008,8,18.6,,12.4,,0,,151.2,,69,,
2008,9,16.3,,9,,0,,98.2,,88,,
2008,10,12.5,,5.5,,2,,79,,117.5,,
2008,11,9.5,,4.2,,3,,36.6,,51.1,,
2008,12,7.3,,0.6,,16,,56.2,,52.5,,
2009,1,6.9,,1,,12,,64.4,,64.2,,
2009,2,8.1,,2.6,,9,,19.2,,59.2,,
2009,3,11.1,,2.9,,6,,32.8,,108.5,,
2009,4,13.5,,5.4,,0,,90.9,,158.9,,
2009,5,15.4,,7,,0,,77.7,,202.5,,
2009,6,19.7,,9.3,,0,,56.6,,223.9,,
2009,7,19.5,,12,,0,,97.6,,151.9,,
2009,8,18.9,,12,,0,,124.7,,123,,
2009,9,17.4,,9.8,,0,,23.6,,122.2,,
2009,10,14.7,,8.5,,0,,84.6,,69.4,,
2009,11,10.5,,4.2,,5,,171.8,,71.6,,
2009,12,5.8,,-0.1,,16,,47.6,,53.3,,
2010,1,4.9,,-1,,17,,44,,47.3,,
2010,2,6.2,,-0.9,,17,,42.2,,51.9,,
2010,3,10.5,,0.9,,12,,83.7,,124.1,,
2010,4,14.2,,4.1,,3,,33.6,,167.6,,
2010,5,15.7,,6.2,,0,,41.8,,195.5,,
2010,6,20.1,,10.8,,0,,63.1,,184.1,,
2010,7,19.6,,12.4,,0,,122.2,,113.5,,
2010,8,18.6,,10.4,,0,,41,,158.2,,
2010,9,17.3,,10,,0,,131.9,,117.4,,
2010,10,14.1,,6.2,,2,,38.4,,109.6,,
2010,11,8.3,,1.2,,12,,115,,81.3,,
2010,12,3,,-3.8,,24,,37.7,,48.7,,
2011,1,6.4,,0.5,,11,,31.8,,71.8,,
2011,2,10.3,,3.4,,1,,100.8,,74.6,,
2011,3,11.1,,2.5,,7,,50.7,,119.5,,
2011,4,16.6,,6.9,,0,,19.5,,194,,
2011,5,15.1,,8.2,,0,,68.8,,182.3,,
2011,6,17,,8.7,,0,,74,,138.5,,
2011,7,19,,10.8,,0,,32.9,,121.3,,
2011,8,18.5,,10.5,,0,,46.1,,118.6,,
2011,9,17.2,,11.1,,0,,90.8,,91.7,,
2011,10,14.2,,8.8,,0,,182.5,,59.2,,
2011,11,12.5,,6.3,,1,,91,,74.7,,
2011,12,8.2,,2.9,,4,,83,,28.7,,
2012,1,8.8,,3.7,,2,,67.8,,45.3,,
2012,2,9.4,,4.3,,5,,31.3,,31,,
2012,3,13,,4.9,,2,,16.6,,120.6,,
2012,4,11.4,,2.6,,4,,51.2,*,140.8,,
2012,5,15.9,,6.4,,0,,50.5,,203.6,,
2012,6,16.5,,9.3,,0,,146.6,,85.6,,
2012,7,18.2,,10.6,,0,,113.7,,107.5,,
2012,8,20,,12.4,,0,,85.4,,146.7,,
2012,9,16.5,,8.9,,0,,86.3,,123.8,,
2012,10,12.5,,4.7,,1,,86.9,,90.6,,
2012,11,9.3,,3,,6,,46.7,,67.6,,
2012,12,8,,1.7,,9,,70.1,,56.7,,
2013,1,7.6,,2.5,,7,,85.9,,33.1,,
2013,2,7.9,,0.8,,12,,68,,75,,
2013,3,6.4,,0.3,,13,,90.2,,52,,
2013,4,11.5,,3.2,,6,,50.1,,164.2,,
2013,5,14.9,,6.3,,0,,75.7,,179.8,,
2013,6,18.8,,9.4,,0,,52.1,,174,,
2013,7,23.1,,13.3,,0,,54.6,,226.7,,
2013,8,19.7,,12.5,,0,,57.3,,115.8,,
2013,9,17.4,,10.1,,0,,49.7,,95,,
2013,10,15,,8.3,,0,,129.3,,105.8,,
2013,11,9.7,,3.3,,3,,38.2,,78.7,,
2013,12,9.5,,3.8,,0,,102.3,,44.3,,
2014,1,7.8,,2.6,,3,,107,,41.3,,
2014,2,8.5,,2.3,,2,,107,,87.3,,
2014,3,10.6,,3.2,,4,,66.8,,86.9,,
2014,4,14.8,,6.1,,0,,45.8,,168.8,,
2014,5,16.2,*,8.1,*,0,*,63,,110.7,*,
2014,6,19.1,*,10.2,*,0,*,44.6,*,175,*,
2014,7,21.4,*,11.6,*,0,*,56.2,*,155.3,*,
2014,8,18.2,*,10,*,0,*,118.6,*,160.8,*,
2014,9,19,,8.6,,0,,3.3,,101.8,,
2014,10,14.8,,6.6,,0,,102.8,,90.8,,
2014,11,10.7,,3.4,,3,,149,,58.9,,
2014,12,7.9,,1.1,,12,,98.5,,53.2,,
2015,1,7.5,,0.1,,15,,85.3,,67.5,,
2015,2,7.9,,0.3,,11,,53.7,,61.7,,
2015,3,10.5,,1.4,,12,,49.8,,137.7,,
2015,4,14.1,,2.4,,4,,61.6,,204.3,,
2015,5,14,,5.6,,1,,99.6,,167,,
2015,6,18,,8.6,,0,,29.3,,183,,
2015,7,18.3,,10.4,,0,,78.8,,117.7,,
2015,8,18.7,,10.4,,0,,117.5,,147.2,,
2015,9,16.9,,8.6,,0,,30.3,,125,,
2015,10,14.5,,6.5,,0,,42.3,,92.9,,
2015,11,11.9,,5.4,,1,,120.8,,44.4,,
2015,12,10.8,,4.6,,2,,186.1,,38.6,,
2016,1,8.4,,3,,5,,131.9,,44.5,,
2016,2,8.2,,1.1,,10,,62.6,,71.3,,
2016,3,10.7,,3,,4,,43.8,,117.3,,
2016,4,11.3,,2.8,,5,,54,,139.7,,
2016,5,17.1,,7,,0,,41.4,,209.6,,
2016,6,19.3,,11,,0,,75.1,,113.6,,
2016,7,19.5,,11.8,,0,,80.6,,113.1,,
2016,8,19.6,,12.1,,0,,52.5,,134.6,,
2016,9,18.2,,11.3,,0,,65.4,,91.1,,
2016,10,14.2,,7.1,,0,,37.1,,89.8,,
2016,11,8.8,,2.3,,8,,40.8,,75.5,,
2016,12,10,,4.1,,1,,51.4,,50.5,,
2017,1,7.8,*,2.8,*,8,*,32.2,*,48.6,*,Provisional
2017,2,9.2,,2.8,,7,,47.9,,43.2,,Provisional
2017,3,12.2,,4.2,,3,,71,,116,,Provisional
2017,4,12.9,,5.4,,1,,8.7,,96.3,,Provisional
2017,5,18.5,,7.9,,0,,35.6,,250.2,,Provisional
